(export (version D)
  (design
    (source "F:\\dev\\Cure Mannheim\\SupplyPCB2\\SupplPCB2.sch")
    (date "04/12/2018 22:14:21")
    (tool "Eeschema (5.0.0)")
    (sheet (number 1) (name /) (tstamps /)
      (title_block
        (title)
        (company)
        (rev)
        (date)
        (source SupplPCB2.sch)
        (comment (number 1) (value ""))
        (comment (number 2) (value ""))
        (comment (number 3) (value ""))
        (comment (number 4) (value "")))))
  (components
    (comp (ref MH1)
      (value MountingHole)
      (footprint Mounting_Holes:MountingHole_3.2mm_M3_Pad)
      (datasheet ~)
      (libsource (lib Mechanical) (part MountingHole) (description "Mounting Hole without connection"))
      (sheetpath (names /) (tstamps /))
      (tstamp 5C06A618))
    (comp (ref MH2)
      (value MountingHole)
      (footprint Mounting_Holes:MountingHole_3.2mm_M3_Pad)
      (datasheet ~)
      (libsource (lib Mechanical) (part MountingHole) (description "Mounting Hole without connection"))
      (sheetpath (names /) (tstamps /))
      (tstamp 5C06A683))
    (comp (ref MH3)
      (value MountingHole)
      (footprint Mounting_Holes:MountingHole_3.2mm_M3_Pad)
      (datasheet ~)
      (libsource (lib Mechanical) (part MountingHole) (description "Mounting Hole without connection"))
      (sheetpath (names /) (tstamps /))
      (tstamp 5C06A699))
    (comp (ref MH4)
      (value MountingHole)
      (footprint Mounting_Holes:MountingHole_3.2mm_M3_Pad)
      (datasheet ~)
      (libsource (lib Mechanical) (part MountingHole) (description "Mounting Hole without connection"))
      (sheetpath (names /) (tstamps /))
      (tstamp 5C06A6CB))
    (comp (ref F1)
      (value Fuse_Small)
      (footprint 03540101ZXGY:03540101ZXGY)
      (datasheet ~)
      (libsource (lib Device) (part Fuse_Small) (description "Fuse, small symbol"))
      (sheetpath (names /) (tstamps /))
      (tstamp 5C06A7B0))
    (comp (ref LED1)
      (value SML-D13FWT86)
      (footprint SML-D13FWT86:SMLD15YWT86)
      (datasheet http://www.rohm.com/web/global/datasheet/SML-D13FW/sml-d13x-e)
      (fields
        (field (name "Arrow Part Number") SML-D13FWT86)
        (field (name "Arrow Price/Stock") http://uk.rs-online.com/web/p/products/1332874P)
        (field (name Description) "ROHM SML-D13FWT86, SML 566 nm Green LED, 1608 (0603) Milky White SMD package")
        (field (name Manufacturer_Name) "ROHM Semiconductor")
        (field (name Manufacturer_Part_Number) SML-D13FWT86)
        (field (name "RS Part Number") 1332874P)
        (field (name "RS Price/Stock") http://uk.rs-online.com/web/p/products/1332874P))
      (libsource (lib Cure_Symbol) (part SML-D13FWT86) (description ""))
      (sheetpath (names /) (tstamps /))
      (tstamp 5C06AAA5))
    (comp (ref R1)
      (value 1200R)
      (footprint Resistors_SMD:R_1206)
      (datasheet ~)
      (libsource (lib Device) (part R_Small) (description "Resistor, small symbol"))
      (sheetpath (names /) (tstamps /))
      (tstamp 5C06AB92))
    (comp (ref F2)
      (value Fuse_Small)
      (footprint 03540101ZXGY:03540101ZXGY)
      (datasheet ~)
      (libsource (lib Device) (part Fuse_Small) (description "Fuse, small symbol"))
      (sheetpath (names /) (tstamps /))
      (tstamp 5C06B068))
    (comp (ref LED2)
      (value SML-D13FWT86)
      (footprint SML-D13FWT86:SMLD15YWT86)
      (datasheet http://www.rohm.com/web/global/datasheet/SML-D13FW/sml-d13x-e)
      (fields
        (field (name "Arrow Part Number") SML-D13FWT86)
        (field (name "Arrow Price/Stock") http://uk.rs-online.com/web/p/products/1332874P)
        (field (name Description) "ROHM SML-D13FWT86, SML 566 nm Green LED, 1608 (0603) Milky White SMD package")
        (field (name Manufacturer_Name) "ROHM Semiconductor")
        (field (name Manufacturer_Part_Number) SML-D13FWT86)
        (field (name "RS Part Number") 1332874P)
        (field (name "RS Price/Stock") http://uk.rs-online.com/web/p/products/1332874P))
      (libsource (lib Cure_Symbol) (part SML-D13FWT86) (description ""))
      (sheetpath (names /) (tstamps /))
      (tstamp 5C06B07E))
    (comp (ref R2)
      (value 1200R)
      (footprint Resistors_SMD:R_1206)
      (datasheet ~)
      (libsource (lib Device) (part R_Small) (description "Resistor, small symbol"))
      (sheetpath (names /) (tstamps /))
      (tstamp 5C06B085))
    (comp (ref F3)
      (value Fuse_Small)
      (footprint 03540101ZXGY:03540101ZXGY)
      (datasheet ~)
      (libsource (lib Device) (part Fuse_Small) (description "Fuse, small symbol"))
      (sheetpath (names /) (tstamps /))
      (tstamp 5C06B4EC))
    (comp (ref LED3)
      (value SML-D13FWT86)
      (footprint SML-D13FWT86:SMLD15YWT86)
      (datasheet http://www.rohm.com/web/global/datasheet/SML-D13FW/sml-d13x-e)
      (fields
        (field (name "Arrow Part Number") SML-D13FWT86)
        (field (name "Arrow Price/Stock") http://uk.rs-online.com/web/p/products/1332874P)
        (field (name Description) "ROHM SML-D13FWT86, SML 566 nm Green LED, 1608 (0603) Milky White SMD package")
        (field (name Manufacturer_Name) "ROHM Semiconductor")
        (field (name Manufacturer_Part_Number) SML-D13FWT86)
        (field (name "RS Part Number") 1332874P)
        (field (name "RS Price/Stock") http://uk.rs-online.com/web/p/products/1332874P))
      (libsource (lib Cure_Symbol) (part SML-D13FWT86) (description ""))
      (sheetpath (names /) (tstamps /))
      (tstamp 5C06B502))
    (comp (ref R3)
      (value 1200R)
      (footprint Resistors_SMD:R_1206)
      (datasheet ~)
      (libsource (lib Device) (part R_Small) (description "Resistor, small symbol"))
      (sheetpath (names /) (tstamps /))
      (tstamp 5C06B509))
    (comp (ref F4)
      (value Fuse_Small)
      (footprint 03540101ZXGY:03540101ZXGY)
      (datasheet ~)
      (libsource (lib Device) (part Fuse_Small) (description "Fuse, small symbol"))
      (sheetpath (names /) (tstamps /))
      (tstamp 5C06B51A))
    (comp (ref LED4)
      (value SML-D13FWT86)
      (footprint SML-D13FWT86:SMLD15YWT86)
      (datasheet http://www.rohm.com/web/global/datasheet/SML-D13FW/sml-d13x-e)
      (fields
        (field (name "Arrow Part Number") SML-D13FWT86)
        (field (name "Arrow Price/Stock") http://uk.rs-online.com/web/p/products/1332874P)
        (field (name Description) "ROHM SML-D13FWT86, SML 566 nm Green LED, 1608 (0603) Milky White SMD package")
        (field (name Manufacturer_Name) "ROHM Semiconductor")
        (field (name Manufacturer_Part_Number) SML-D13FWT86)
        (field (name "RS Part Number") 1332874P)
        (field (name "RS Price/Stock") http://uk.rs-online.com/web/p/products/1332874P))
      (libsource (lib Cure_Symbol) (part SML-D13FWT86) (description ""))
      (sheetpath (names /) (tstamps /))
      (tstamp 5C06B530))
    (comp (ref R4)
      (value 1200R)
      (footprint Resistors_SMD:R_1206)
      (datasheet ~)
      (libsource (lib Device) (part R_Small) (description "Resistor, small symbol"))
      (sheetpath (names /) (tstamps /))
      (tstamp 5C06B537))
    (comp (ref F5)
      (value Fuse_Small)
      (footprint 03540101ZXGY:03540101ZXGY)
      (datasheet ~)
      (libsource (lib Device) (part Fuse_Small) (description "Fuse, small symbol"))
      (sheetpath (names /) (tstamps /))
      (tstamp 5C06BD15))
    (comp (ref LED5)
      (value SML-D13FWT86)
      (footprint SML-D13FWT86:SMLD15YWT86)
      (datasheet http://www.rohm.com/web/global/datasheet/SML-D13FW/sml-d13x-e)
      (fields
        (field (name "Arrow Part Number") SML-D13FWT86)
        (field (name "Arrow Price/Stock") http://uk.rs-online.com/web/p/products/1332874P)
        (field (name Description) "ROHM SML-D13FWT86, SML 566 nm Green LED, 1608 (0603) Milky White SMD package")
        (field (name Manufacturer_Name) "ROHM Semiconductor")
        (field (name Manufacturer_Part_Number) SML-D13FWT86)
        (field (name "RS Part Number") 1332874P)
        (field (name "RS Price/Stock") http://uk.rs-online.com/web/p/products/1332874P))
      (libsource (lib Cure_Symbol) (part SML-D13FWT86) (description ""))
      (sheetpath (names /) (tstamps /))
      (tstamp 5C06BD2B))
    (comp (ref R5)
      (value 1200R)
      (footprint Resistors_SMD:R_1206)
      (datasheet ~)
      (libsource (lib Device) (part R_Small) (description "Resistor, small symbol"))
      (sheetpath (names /) (tstamps /))
      (tstamp 5C06BD32))
    (comp (ref F6)
      (value Fuse_Small)
      (footprint 03540101ZXGY:03540101ZXGY)
      (datasheet ~)
      (libsource (lib Device) (part Fuse_Small) (description "Fuse, small symbol"))
      (sheetpath (names /) (tstamps /))
      (tstamp 5C06BD43))
    (comp (ref LED6)
      (value SML-D13FWT86)
      (footprint SML-D13FWT86:SMLD15YWT86)
      (datasheet http://www.rohm.com/web/global/datasheet/SML-D13FW/sml-d13x-e)
      (fields
        (field (name "Arrow Part Number") SML-D13FWT86)
        (field (name "Arrow Price/Stock") http://uk.rs-online.com/web/p/products/1332874P)
        (field (name Description) "ROHM SML-D13FWT86, SML 566 nm Green LED, 1608 (0603) Milky White SMD package")
        (field (name Manufacturer_Name) "ROHM Semiconductor")
        (field (name Manufacturer_Part_Number) SML-D13FWT86)
        (field (name "RS Part Number") 1332874P)
        (field (name "RS Price/Stock") http://uk.rs-online.com/web/p/products/1332874P))
      (libsource (lib Cure_Symbol) (part SML-D13FWT86) (description ""))
      (sheetpath (names /) (tstamps /))
      (tstamp 5C06BD59))
    (comp (ref R6)
      (value 1200R)
      (footprint Resistors_SMD:R_1206)
      (datasheet ~)
      (libsource (lib Device) (part R_Small) (description "Resistor, small symbol"))
      (sheetpath (names /) (tstamps /))
      (tstamp 5C06BD60))
    (comp (ref F7)
      (value Fuse_Small)
      (footprint 03540101ZXGY:03540101ZXGY)
      (datasheet ~)
      (libsource (lib Device) (part Fuse_Small) (description "Fuse, small symbol"))
      (sheetpath (names /) (tstamps /))
      (tstamp 5C06BD71))
    (comp (ref LED7)
      (value SML-D13FWT86)
      (footprint SML-D13FWT86:SMLD15YWT86)
      (datasheet http://www.rohm.com/web/global/datasheet/SML-D13FW/sml-d13x-e)
      (fields
        (field (name "Arrow Part Number") SML-D13FWT86)
        (field (name "Arrow Price/Stock") http://uk.rs-online.com/web/p/products/1332874P)
        (field (name Description) "ROHM SML-D13FWT86, SML 566 nm Green LED, 1608 (0603) Milky White SMD package")
        (field (name Manufacturer_Name) "ROHM Semiconductor")
        (field (name Manufacturer_Part_Number) SML-D13FWT86)
        (field (name "RS Part Number") 1332874P)
        (field (name "RS Price/Stock") http://uk.rs-online.com/web/p/products/1332874P))
      (libsource (lib Cure_Symbol) (part SML-D13FWT86) (description ""))
      (sheetpath (names /) (tstamps /))
      (tstamp 5C06BD87))
    (comp (ref R7)
      (value 1200R)
      (footprint Resistors_SMD:R_1206)
      (datasheet ~)
      (libsource (lib Device) (part R_Small) (description "Resistor, small symbol"))
      (sheetpath (names /) (tstamps /))
      (tstamp 5C06BD8E))
    (comp (ref J1)
      (value DB15_Male)
      (footprint 1-106506-2:11065062)
      (datasheet " ~")
      (libsource (lib Connector) (part DB15_Male) (description "15-pin male D-SUB connector (low-density/2 columns)"))
      (sheetpath (names /) (tstamps /))
      (tstamp 5C06F36B))
    (comp (ref LED8)
      (value SML-D13FWT86)
      (footprint SML-D13FWT86:SMLD15YWT86)
      (datasheet http://www.rohm.com/web/global/datasheet/SML-D13FW/sml-d13x-e)
      (fields
        (field (name "Arrow Part Number") SML-D13FWT86)
        (field (name "Arrow Price/Stock") http://uk.rs-online.com/web/p/products/1332874P)
        (field (name Description) "ROHM SML-D13FWT86, SML 566 nm Green LED, 1608 (0603) Milky White SMD package")
        (field (name Manufacturer_Name) "ROHM Semiconductor")
        (field (name Manufacturer_Part_Number) SML-D13FWT86)
        (field (name "RS Part Number") 1332874P)
        (field (name "RS Price/Stock") http://uk.rs-online.com/web/p/products/1332874P))
      (libsource (lib Cure_Symbol) (part SML-D13FWT86) (description ""))
      (sheetpath (names /) (tstamps /))
      (tstamp 5C0701CD))
    (comp (ref R8)
      (value 1200R)
      (footprint Resistors_SMD:R_1206)
      (datasheet ~)
      (libsource (lib Device) (part R_Small) (description "Resistor, small symbol"))
      (sheetpath (names /) (tstamps /))
      (tstamp 5C0701D4))
    (comp (ref F8)
      (value Polyfuse_Small)
      (footprint RXEF005:HDRV2W60P0X505_1X2_800X300X830P)
      (datasheet ~)
      (libsource (lib Device) (part Polyfuse_Small) (description "resettable fuse, polymeric positive temperature coefficient (PPTC), small symbol"))
      (sheetpath (names /) (tstamps /))
      (tstamp 5C0711CB))
    (comp (ref LED9)
      (value SML-D13FWT86)
      (footprint SML-D13FWT86:SMLD15YWT86)
      (datasheet http://www.rohm.com/web/global/datasheet/SML-D13FW/sml-d13x-e)
      (fields
        (field (name "Arrow Part Number") SML-D13FWT86)
        (field (name "Arrow Price/Stock") http://uk.rs-online.com/web/p/products/1332874P)
        (field (name Description) "ROHM SML-D13FWT86, SML 566 nm Green LED, 1608 (0603) Milky White SMD package")
        (field (name Manufacturer_Name) "ROHM Semiconductor")
        (field (name Manufacturer_Part_Number) SML-D13FWT86)
        (field (name "RS Part Number") 1332874P)
        (field (name "RS Price/Stock") http://uk.rs-online.com/web/p/products/1332874P))
      (libsource (lib Cure_Symbol) (part SML-D13FWT86) (description ""))
      (sheetpath (names /) (tstamps /))
      (tstamp 5C0718D5))
    (comp (ref R9)
      (value 1200R)
      (footprint Resistors_SMD:R_1206)
      (datasheet ~)
      (libsource (lib Device) (part R_Small) (description "Resistor, small symbol"))
      (sheetpath (names /) (tstamps /))
      (tstamp 5C0718DC))
    (comp (ref F9)
      (value Polyfuse_Small)
      (footprint RXEF005:HDRV2W60P0X505_1X2_800X300X830P)
      (datasheet ~)
      (libsource (lib Device) (part Polyfuse_Small) (description "resettable fuse, polymeric positive temperature coefficient (PPTC), small symbol"))
      (sheetpath (names /) (tstamps /))
      (tstamp 5C0718EF))
    (comp (ref LED10)
      (value SML-D13FWT86)
      (footprint SML-D13FWT86:SMLD15YWT86)
      (datasheet http://www.rohm.com/web/global/datasheet/SML-D13FW/sml-d13x-e)
      (fields
        (field (name "Arrow Part Number") SML-D13FWT86)
        (field (name "Arrow Price/Stock") http://uk.rs-online.com/web/p/products/1332874P)
        (field (name Description) "ROHM SML-D13FWT86, SML 566 nm Green LED, 1608 (0603) Milky White SMD package")
        (field (name Manufacturer_Name) "ROHM Semiconductor")
        (field (name Manufacturer_Part_Number) SML-D13FWT86)
        (field (name "RS Part Number") 1332874P)
        (field (name "RS Price/Stock") http://uk.rs-online.com/web/p/products/1332874P))
      (libsource (lib Cure_Symbol) (part SML-D13FWT86) (description ""))
      (sheetpath (names /) (tstamps /))
      (tstamp 5C072E74))
    (comp (ref R10)
      (value 1200R)
      (footprint Resistors_SMD:R_1206)
      (datasheet ~)
      (libsource (lib Device) (part R_Small) (description "Resistor, small symbol"))
      (sheetpath (names /) (tstamps /))
      (tstamp 5C072E7B))
    (comp (ref F10)
      (value Polyfuse_Small)
      (footprint RXEF005:HDRV2W60P0X505_1X2_800X300X830P)
      (datasheet ~)
      (libsource (lib Device) (part Polyfuse_Small) (description "resettable fuse, polymeric positive temperature coefficient (PPTC), small symbol"))
      (sheetpath (names /) (tstamps /))
      (tstamp 5C072E8E))
    (comp (ref LED11)
      (value SML-D13FWT86)
      (footprint SML-D13FWT86:SMLD15YWT86)
      (datasheet http://www.rohm.com/web/global/datasheet/SML-D13FW/sml-d13x-e)
      (fields
        (field (name "Arrow Part Number") SML-D13FWT86)
        (field (name "Arrow Price/Stock") http://uk.rs-online.com/web/p/products/1332874P)
        (field (name Description) "ROHM SML-D13FWT86, SML 566 nm Green LED, 1608 (0603) Milky White SMD package")
        (field (name Manufacturer_Name) "ROHM Semiconductor")
        (field (name Manufacturer_Part_Number) SML-D13FWT86)
        (field (name "RS Part Number") 1332874P)
        (field (name "RS Price/Stock") http://uk.rs-online.com/web/p/products/1332874P))
      (libsource (lib Cure_Symbol) (part SML-D13FWT86) (description ""))
      (sheetpath (names /) (tstamps /))
      (tstamp 5C074B1F))
    (comp (ref R11)
      (value 1200R)
      (footprint Resistors_SMD:R_1206)
      (datasheet ~)
      (libsource (lib Device) (part R_Small) (description "Resistor, small symbol"))
      (sheetpath (names /) (tstamps /))
      (tstamp 5C074B26))
    (comp (ref F11)
      (value Polyfuse_Small)
      (footprint RXEF005:HDRV2W60P0X505_1X2_800X300X830P)
      (datasheet ~)
      (libsource (lib Device) (part Polyfuse_Small) (description "resettable fuse, polymeric positive temperature coefficient (PPTC), small symbol"))
      (sheetpath (names /) (tstamps /))
      (tstamp 5C074B39))
    (comp (ref LED12)
      (value SML-D13FWT86)
      (footprint SML-D13FWT86:SMLD15YWT86)
      (datasheet http://www.rohm.com/web/global/datasheet/SML-D13FW/sml-d13x-e)
      (fields
        (field (name "Arrow Part Number") SML-D13FWT86)
        (field (name "Arrow Price/Stock") http://uk.rs-online.com/web/p/products/1332874P)
        (field (name Description) "ROHM SML-D13FWT86, SML 566 nm Green LED, 1608 (0603) Milky White SMD package")
        (field (name Manufacturer_Name) "ROHM Semiconductor")
        (field (name Manufacturer_Part_Number) SML-D13FWT86)
        (field (name "RS Part Number") 1332874P)
        (field (name "RS Price/Stock") http://uk.rs-online.com/web/p/products/1332874P))
      (libsource (lib Cure_Symbol) (part SML-D13FWT86) (description ""))
      (sheetpath (names /) (tstamps /))
      (tstamp 5C074B50))
    (comp (ref R12)
      (value 1200R)
      (footprint Resistors_SMD:R_1206)
      (datasheet ~)
      (libsource (lib Device) (part R_Small) (description "Resistor, small symbol"))
      (sheetpath (names /) (tstamps /))
      (tstamp 5C074B57))
    (comp (ref F12)
      (value Polyfuse_Small)
      (footprint RXEF005:HDRV2W60P0X505_1X2_800X300X830P)
      (datasheet ~)
      (libsource (lib Device) (part Polyfuse_Small) (description "resettable fuse, polymeric positive temperature coefficient (PPTC), small symbol"))
      (sheetpath (names /) (tstamps /))
      (tstamp 5C074B6A))
    (comp (ref LED13)
      (value SML-D13FWT86)
      (footprint SML-D13FWT86:SMLD15YWT86)
      (datasheet http://www.rohm.com/web/global/datasheet/SML-D13FW/sml-d13x-e)
      (fields
        (field (name "Arrow Part Number") SML-D13FWT86)
        (field (name "Arrow Price/Stock") http://uk.rs-online.com/web/p/products/1332874P)
        (field (name Description) "ROHM SML-D13FWT86, SML 566 nm Green LED, 1608 (0603) Milky White SMD package")
        (field (name Manufacturer_Name) "ROHM Semiconductor")
        (field (name Manufacturer_Part_Number) SML-D13FWT86)
        (field (name "RS Part Number") 1332874P)
        (field (name "RS Price/Stock") http://uk.rs-online.com/web/p/products/1332874P))
      (libsource (lib Cure_Symbol) (part SML-D13FWT86) (description ""))
      (sheetpath (names /) (tstamps /))
      (tstamp 5C074B81))
    (comp (ref R13)
      (value 1200R)
      (footprint Resistors_SMD:R_1206)
      (datasheet ~)
      (libsource (lib Device) (part R_Small) (description "Resistor, small symbol"))
      (sheetpath (names /) (tstamps /))
      (tstamp 5C074B88))
    (comp (ref F13)
      (value Polyfuse_Small)
      (footprint RXEF005:HDRV2W60P0X505_1X2_800X300X830P)
      (datasheet ~)
      (libsource (lib Device) (part Polyfuse_Small) (description "resettable fuse, polymeric positive temperature coefficient (PPTC), small symbol"))
      (sheetpath (names /) (tstamps /))
      (tstamp 5C074B9B))
    (comp (ref LED14)
      (value SML-D13FWT86)
      (footprint SML-D13FWT86:SMLD15YWT86)
      (datasheet http://www.rohm.com/web/global/datasheet/SML-D13FW/sml-d13x-e)
      (fields
        (field (name "Arrow Part Number") SML-D13FWT86)
        (field (name "Arrow Price/Stock") http://uk.rs-online.com/web/p/products/1332874P)
        (field (name Description) "ROHM SML-D13FWT86, SML 566 nm Green LED, 1608 (0603) Milky White SMD package")
        (field (name Manufacturer_Name) "ROHM Semiconductor")
        (field (name Manufacturer_Part_Number) SML-D13FWT86)
        (field (name "RS Part Number") 1332874P)
        (field (name "RS Price/Stock") http://uk.rs-online.com/web/p/products/1332874P))
      (libsource (lib Cure_Symbol) (part SML-D13FWT86) (description ""))
      (sheetpath (names /) (tstamps /))
      (tstamp 5C078F2F))
    (comp (ref R14)
      (value 1200R)
      (footprint Resistors_SMD:R_1206)
      (datasheet ~)
      (libsource (lib Device) (part R_Small) (description "Resistor, small symbol"))
      (sheetpath (names /) (tstamps /))
      (tstamp 5C078F36))
    (comp (ref F14)
      (value Polyfuse_Small)
      (footprint RXEF005:HDRV2W60P0X505_1X2_800X300X830P)
      (datasheet ~)
      (libsource (lib Device) (part Polyfuse_Small) (description "resettable fuse, polymeric positive temperature coefficient (PPTC), small symbol"))
      (sheetpath (names /) (tstamps /))
      (tstamp 5C078F49))
    (comp (ref LED15)
      (value SML-D13FWT86)
      (footprint SML-D13FWT86:SMLD15YWT86)
      (datasheet http://www.rohm.com/web/global/datasheet/SML-D13FW/sml-d13x-e)
      (fields
        (field (name "Arrow Part Number") SML-D13FWT86)
        (field (name "Arrow Price/Stock") http://uk.rs-online.com/web/p/products/1332874P)
        (field (name Description) "ROHM SML-D13FWT86, SML 566 nm Green LED, 1608 (0603) Milky White SMD package")
        (field (name Manufacturer_Name) "ROHM Semiconductor")
        (field (name Manufacturer_Part_Number) SML-D13FWT86)
        (field (name "RS Part Number") 1332874P)
        (field (name "RS Price/Stock") http://uk.rs-online.com/web/p/products/1332874P))
      (libsource (lib Cure_Symbol) (part SML-D13FWT86) (description ""))
      (sheetpath (names /) (tstamps /))
      (tstamp 5C078F60))
    (comp (ref R15)
      (value 1200R)
      (footprint Resistors_SMD:R_1206)
      (datasheet ~)
      (libsource (lib Device) (part R_Small) (description "Resistor, small symbol"))
      (sheetpath (names /) (tstamps /))
      (tstamp 5C078F67))
    (comp (ref F15)
      (value Polyfuse_Small)
      (footprint RXEF005:HDRV2W60P0X505_1X2_800X300X830P)
      (datasheet ~)
      (libsource (lib Device) (part Polyfuse_Small) (description "resettable fuse, polymeric positive temperature coefficient (PPTC), small symbol"))
      (sheetpath (names /) (tstamps /))
      (tstamp 5C078F7A))
    (comp (ref J2)
      (value XT60PW-M)
      (footprint xt60pw:XT60PW)
      (libsource (lib Cure_Symbol) (part XT60PW-M) (description ""))
      (sheetpath (names /) (tstamps /))
      (tstamp 5C070A41))
    (comp (ref J3)
      (value RJ45)
      (footprint 2301994-9:23019949)
      (datasheet ~)
      (libsource (lib Connector) (part RJ45) (description "RJ connector, 8P8C (8 positions 8 connected)"))
      (sheetpath (names /) (tstamps /))
      (tstamp 5C07296A))
    (comp (ref F16)
      (value Fuse_Small)
      (footprint 03540101ZXGY:03540101ZXGY)
      (datasheet ~)
      (libsource (lib Device) (part Fuse_Small) (description "Fuse, small symbol"))
      (sheetpath (names /) (tstamps /))
      (tstamp 5C07B62A))
    (comp (ref LED16)
      (value SML-D13FWT86)
      (footprint SML-D13FWT86:SMLD15YWT86)
      (datasheet http://www.rohm.com/web/global/datasheet/SML-D13FW/sml-d13x-e)
      (fields
        (field (name "Arrow Part Number") SML-D13FWT86)
        (field (name "Arrow Price/Stock") http://uk.rs-online.com/web/p/products/1332874P)
        (field (name Description) "ROHM SML-D13FWT86, SML 566 nm Green LED, 1608 (0603) Milky White SMD package")
        (field (name Manufacturer_Name) "ROHM Semiconductor")
        (field (name Manufacturer_Part_Number) SML-D13FWT86)
        (field (name "RS Part Number") 1332874P)
        (field (name "RS Price/Stock") http://uk.rs-online.com/web/p/products/1332874P))
      (libsource (lib Cure_Symbol) (part SML-D13FWT86) (description ""))
      (sheetpath (names /) (tstamps /))
      (tstamp 5C07B640))
    (comp (ref R16)
      (value 1200R)
      (footprint Resistors_SMD:R_1206)
      (datasheet ~)
      (libsource (lib Device) (part R_Small) (description "Resistor, small symbol"))
      (sheetpath (names /) (tstamps /))
      (tstamp 5C07B647)))
  (libparts
    (libpart (lib Connector) (part 8P8C)
      (aliases
        (alias RJ31)
        (alias RJ32)
        (alias RJ33)
        (alias RJ34)
        (alias RJ35)
        (alias RJ41)
        (alias RJ45)
        (alias RJ49)
        (alias RJ61))
      (description "RJ connector, 8P8C (8 positions 8 connected), RJ31/RJ32/RJ33/RJ34/RJ35/RJ41/RJ45/RJ49/RJ61")
      (docs ~)
      (footprints
        (fp 8P8C*)
        (fp RJ31*)
        (fp RJ32*)
        (fp RJ33*)
        (fp RJ34*)
        (fp RJ35*)
        (fp RJ41*)
        (fp RJ45*)
        (fp RJ49*)
        (fp RJ61*))
      (fields
        (field (name Reference) J)
        (field (name Value) 8P8C))
      (pins
        (pin (num 1) (name ~) (type passive))
        (pin (num 2) (name ~) (type passive))
        (pin (num 3) (name ~) (type passive))
        (pin (num 4) (name ~) (type passive))
        (pin (num 5) (name ~) (type passive))
        (pin (num 6) (name ~) (type passive))
        (pin (num 7) (name ~) (type passive))
        (pin (num 8) (name ~) (type passive))))
    (libpart (lib Connector) (part DB15_Male)
      (description "15-pin male D-SUB connector (low-density/2 columns)")
      (docs " ~")
      (footprints
        (fp DSUB*Male*))
      (fields
        (field (name Reference) J)
        (field (name Value) DB15_Male))
      (pins
        (pin (num 1) (name 1) (type passive))
        (pin (num 2) (name 2) (type passive))
        (pin (num 3) (name 3) (type passive))
        (pin (num 4) (name 4) (type passive))
        (pin (num 5) (name 5) (type passive))
        (pin (num 6) (name 6) (type passive))
        (pin (num 7) (name 7) (type passive))
        (pin (num 8) (name 8) (type passive))
        (pin (num 9) (name P9) (type passive))
        (pin (num 10) (name P10) (type passive))
        (pin (num 11) (name P111) (type passive))
        (pin (num 12) (name P12) (type passive))
        (pin (num 13) (name P13) (type passive))
        (pin (num 14) (name P14) (type passive))
        (pin (num 15) (name P15) (type passive))))
    (libpart (lib Cure_Symbol) (part SML-D13FWT86)
      (fields
        (field (name Reference) LED)
        (field (name Value) SML-D13FWT86)
        (field (name Footprint) SMLD15YWT86)
        (field (name Datasheet) http://www.rohm.com/web/global/datasheet/SML-D13FW/sml-d13x-e)
        (field (name Description) "ROHM SML-D13FWT86, SML 566 nm Green LED, 1608 (0603) Milky White SMD package")
        (field (name Manufacturer_Name) "ROHM Semiconductor")
        (field (name Manufacturer_Part_Number) SML-D13FWT86)
        (field (name "RS Part Number") 1332874P)
        (field (name "RS Price/Stock") http://uk.rs-online.com/web/p/products/1332874P)
        (field (name "Arrow Part Number") SML-D13FWT86)
        (field (name "Arrow Price/Stock") http://uk.rs-online.com/web/p/products/1332874P))
      (pins
        (pin (num 1) (name ~) (type BiDi))
        (pin (num 2) (name ~) (type BiDi))))
    (libpart (lib Cure_Symbol) (part XT60PW-M)
      (fields
        (field (name Reference) J)
        (field (name Value) XT60PW-M))
      (pins
        (pin (num 1) (name -) (type output))
        (pin (num 2) (name +) (type output))))
    (libpart (lib Device) (part Fuse_Small)
      (description "Fuse, small symbol")
      (docs ~)
      (footprints
        (fp SM*))
      (fields
        (field (name Reference) F)
        (field (name Value) Fuse_Small))
      (pins
        (pin (num 1) (name ~) (type passive))
        (pin (num 2) (name ~) (type passive))))
    (libpart (lib Device) (part Polyfuse_Small)
      (description "resettable fuse, polymeric positive temperature coefficient (PPTC), small symbol")
      (docs ~)
      (footprints
        (fp *polyfuse*)
        (fp *PTC*))
      (fields
        (field (name Reference) F)
        (field (name Value) Polyfuse_Small))
      (pins
        (pin (num 1) (name ~) (type passive))
        (pin (num 2) (name ~) (type passive))))
    (libpart (lib Device) (part R_Small)
      (description "Resistor, small symbol")
      (docs ~)
      (footprints
        (fp R_*))
      (fields
        (field (name Reference) R)
        (field (name Value) R_Small))
      (pins
        (pin (num 1) (name ~) (type passive))
        (pin (num 2) (name ~) (type passive))))
    (libpart (lib Mechanical) (part MountingHole)
      (description "Mounting Hole without connection")
      (docs ~)
      (footprints
        (fp MountingHole*))
      (fields
        (field (name Reference) MH)
        (field (name Value) MountingHole))))
  (libraries
    (library (logical Connector)
      (uri D:\Programme\KiCad\share\kicad\library/Connector.lib))
    (library (logical Cure_Symbol)
      (uri "F:/dev/Cure Mannheim/kicad-library/Symbol_Cure/Cure_Symbol.lib"))
    (library (logical Device)
      (uri D:\Programme\KiCad\share\kicad\library/Device.lib))
    (library (logical Mechanical)
      (uri D:\Programme\KiCad\share\kicad\library/Mechanical.lib)))
  (nets
    (net (code 1) (name GND)
      (node (ref LED7) (pin 1))
      (node (ref LED2) (pin 1))
      (node (ref LED10) (pin 1))
      (node (ref LED1) (pin 1))
      (node (ref LED11) (pin 1))
      (node (ref LED4) (pin 1))
      (node (ref J3) (pin 6))
      (node (ref J3) (pin 3))
      (node (ref LED6) (pin 1))
      (node (ref LED5) (pin 1))
      (node (ref LED13) (pin 1))
      (node (ref J2) (pin 1))
      (node (ref LED12) (pin 1))
      (node (ref LED8) (pin 1))
      (node (ref LED16) (pin 1))
      (node (ref LED9) (pin 1))
      (node (ref LED3) (pin 1))
      (node (ref LED14) (pin 1))
      (node (ref LED15) (pin 1)))
    (net (code 2) (name Precharge_Fused)
      (node (ref F13) (pin 1))
      (node (ref R13) (pin 1))
      (node (ref J1) (pin 11)))
    (net (code 3) (name "Net-(LED13-Pad2)")
      (node (ref LED13) (pin 2))
      (node (ref R13) (pin 2)))
    (net (code 4) (name +24V)
      (node (ref F15) (pin 2))
      (node (ref J2) (pin 2))
      (node (ref F9) (pin 2))
      (node (ref F1) (pin 1))
      (node (ref F8) (pin 2))
      (node (ref F7) (pin 1))
      (node (ref F3) (pin 1))
      (node (ref F4) (pin 1))
      (node (ref F5) (pin 1))
      (node (ref F6) (pin 1))
      (node (ref F2) (pin 1))
      (node (ref F13) (pin 2))
      (node (ref F14) (pin 2))
      (node (ref F10) (pin 2))
      (node (ref F16) (pin 1))
      (node (ref F12) (pin 2))
      (node (ref F11) (pin 2)))
    (net (code 5) (name Discharge_Fused)
      (node (ref J1) (pin 12))
      (node (ref R12) (pin 1))
      (node (ref F12) (pin 1)))
    (net (code 6) (name "Net-(LED12-Pad2)")
      (node (ref R12) (pin 2))
      (node (ref LED12) (pin 2)))
    (net (code 7) (name SC_Fused)
      (node (ref J1) (pin 10))
      (node (ref F14) (pin 1))
      (node (ref R14) (pin 1)))
    (net (code 8) (name "Net-(LED14-Pad2)")
      (node (ref LED14) (pin 2))
      (node (ref R14) (pin 2)))
    (net (code 9) (name "Net-(LED11-Pad2)")
      (node (ref R11) (pin 2))
      (node (ref LED11) (pin 2)))
    (net (code 10) (name IMD_Fused)
      (node (ref J1) (pin 14))
      (node (ref F10) (pin 1))
      (node (ref R10) (pin 1)))
    (net (code 11) (name "Net-(LED10-Pad2)")
      (node (ref LED10) (pin 2))
      (node (ref R10) (pin 2)))
    (net (code 12) (name TSAL_Fused)
      (node (ref R11) (pin 1))
      (node (ref F11) (pin 1))
      (node (ref J1) (pin 13)))
    (net (code 13) (name µC_Fused)
      (node (ref R16) (pin 1))
      (node (ref J3) (pin 7))
      (node (ref F16) (pin 2))
      (node (ref J3) (pin 8)))
    (net (code 14) (name "Net-(J3-Pad5)")
      (node (ref J3) (pin 5)))
    (net (code 15) (name "Net-(J3-Pad4)")
      (node (ref J3) (pin 4)))
    (net (code 16) (name "Net-(J3-Pad2)")
      (node (ref J3) (pin 2)))
    (net (code 17) (name "Net-(J3-Pad1)")
      (node (ref J3) (pin 1)))
    (net (code 18) (name SCPCB_Fused)
      (node (ref J1) (pin 1))
      (node (ref R8) (pin 1))
      (node (ref F8) (pin 1)))
    (net (code 19) (name Fan_ES910_Fused)
      (node (ref J1) (pin 2))
      (node (ref F7) (pin 2))
      (node (ref R7) (pin 1)))
    (net (code 20) (name EnergyMeter_Fused)
      (node (ref R6) (pin 1))
      (node (ref J1) (pin 3))
      (node (ref F6) (pin 2)))
    (net (code 21) (name "Net-(LED16-Pad2)")
      (node (ref LED16) (pin 2))
      (node (ref R16) (pin 2)))
    (net (code 22) (name RaspberryPi_Fused)
      (node (ref R5) (pin 1))
      (node (ref F5) (pin 2))
      (node (ref J1) (pin 4)))
    (net (code 23) (name Invterter2_Fused)
      (node (ref J1) (pin 5))
      (node (ref R4) (pin 1))
      (node (ref F4) (pin 2)))
    (net (code 24) (name Inverter1_Fused)
      (node (ref J1) (pin 6))
      (node (ref R3) (pin 1))
      (node (ref F3) (pin 2)))
    (net (code 25) (name ES910_Fused)
      (node (ref R2) (pin 1))
      (node (ref J1) (pin 7))
      (node (ref F2) (pin 2)))
    (net (code 26) (name Brakelight_Fused)
      (node (ref F1) (pin 2))
      (node (ref R1) (pin 1))
      (node (ref J1) (pin 8)))
    (net (code 27) (name BSPD_Fused)
      (node (ref R15) (pin 1))
      (node (ref F15) (pin 1))
      (node (ref J1) (pin 9)))
    (net (code 28) (name "Net-(LED15-Pad2)")
      (node (ref LED15) (pin 2))
      (node (ref R15) (pin 2)))
    (net (code 29) (name LedPcb_Fused)
      (node (ref F9) (pin 1))
      (node (ref R9) (pin 1))
      (node (ref J1) (pin 15)))
    (net (code 30) (name "Net-(LED5-Pad2)")
      (node (ref R5) (pin 2))
      (node (ref LED5) (pin 2)))
    (net (code 31) (name "Net-(LED4-Pad2)")
      (node (ref R4) (pin 2))
      (node (ref LED4) (pin 2)))
    (net (code 32) (name "Net-(LED6-Pad2)")
      (node (ref R6) (pin 2))
      (node (ref LED6) (pin 2)))
    (net (code 33) (name "Net-(LED2-Pad2)")
      (node (ref LED2) (pin 2))
      (node (ref R2) (pin 2)))
    (net (code 34) (name "Net-(LED1-Pad2)")
      (node (ref LED1) (pin 2))
      (node (ref R1) (pin 2)))
    (net (code 35) (name "Net-(LED3-Pad2)")
      (node (ref R3) (pin 2))
      (node (ref LED3) (pin 2)))
    (net (code 36) (name "Net-(LED8-Pad2)")
      (node (ref R8) (pin 2))
      (node (ref LED8) (pin 2)))
    (net (code 37) (name "Net-(LED9-Pad2)")
      (node (ref R9) (pin 2))
      (node (ref LED9) (pin 2)))
    (net (code 38) (name "Net-(LED7-Pad2)")
      (node (ref R7) (pin 2))
      (node (ref LED7) (pin 2)))))