EESchema Schematic File Version 4
LIBS:SupplPCB2-cache
EELAYER 26 0
EELAYER END
$Descr A4 11693 8268
encoding utf-8
Sheet 1 1
Title ""
Date ""
Rev ""
Comp ""
Comment1 ""
Comment2 ""
Comment3 ""
Comment4 ""
$EndDescr
$Comp
L Mechanical:MountingHole MH1
U 1 1 5C06A618
P 1000 1050
F 0 "MH1" H 1100 1096 50  0000 L CNN
F 1 "MountingHole" H 1100 1005 50  0000 L CNN
F 2 "Mounting_Holes:MountingHole_3.2mm_M3_Pad" H 1000 1050 50  0001 C CNN
F 3 "~" H 1000 1050 50  0001 C CNN
	1    1000 1050
	1    0    0    -1  
$EndComp
$Comp
L Mechanical:MountingHole MH2
U 1 1 5C06A683
P 1150 1050
F 0 "MH2" H 1250 1096 50  0000 L CNN
F 1 "MountingHole" H 1250 1005 50  0000 L CNN
F 2 "Mounting_Holes:MountingHole_3.2mm_M3_Pad" H 1150 1050 50  0001 C CNN
F 3 "~" H 1150 1050 50  0001 C CNN
	1    1150 1050
	1    0    0    -1  
$EndComp
$Comp
L Mechanical:MountingHole MH3
U 1 1 5C06A699
P 1000 1200
F 0 "MH3" H 1100 1246 50  0000 L CNN
F 1 "MountingHole" H 1100 1155 50  0000 L CNN
F 2 "Mounting_Holes:MountingHole_3.2mm_M3_Pad" H 1000 1200 50  0001 C CNN
F 3 "~" H 1000 1200 50  0001 C CNN
	1    1000 1200
	1    0    0    -1  
$EndComp
$Comp
L Mechanical:MountingHole MH4
U 1 1 5C06A6CB
P 1150 1200
F 0 "MH4" H 1250 1246 50  0000 L CNN
F 1 "MountingHole" H 1250 1155 50  0000 L CNN
F 2 "Mounting_Holes:MountingHole_3.2mm_M3_Pad" H 1150 1200 50  0001 C CNN
F 3 "~" H 1150 1200 50  0001 C CNN
	1    1150 1200
	1    0    0    -1  
$EndComp
$Comp
L Device:Fuse_Small F1
U 1 1 5C06A7B0
P 4250 1850
F 0 "F1" H 4250 2035 50  0000 C CNN
F 1 "Fuse_Small" H 4250 1944 50  0000 C CNN
F 2 "03540101ZXGY:03540101ZXGY" H 4250 1850 50  0001 C CNN
F 3 "~" H 4250 1850 50  0001 C CNN
	1    4250 1850
	1    0    0    -1  
$EndComp
$Comp
L power:+24V #PWR0101
U 1 1 5C06A9C6
P 4050 1700
F 0 "#PWR0101" H 4050 1550 50  0001 C CNN
F 1 "+24V" H 4065 1873 50  0000 C CNN
F 2 "" H 4050 1700 50  0001 C CNN
F 3 "" H 4050 1700 50  0001 C CNN
	1    4050 1700
	1    0    0    -1  
$EndComp
Wire Wire Line
	4050 1700 4050 1850
Wire Wire Line
	4050 1850 4150 1850
$Comp
L Cure_Symbol:SML-D13FWT86 LED1
U 1 1 5C06AAA5
P 4450 2550
F 0 "LED1" V 4746 2382 50  0000 R CNN
F 1 "SML-D13FWT86" V 4655 2382 50  0000 R CNN
F 2 "SML-D13FWT86:SMLD15YWT86" H 4950 2700 50  0001 L BNN
F 3 "http://www.rohm.com/web/global/datasheet/SML-D13FW/sml-d13x-e" H 4950 2600 50  0001 L BNN
F 4 "ROHM SML-D13FWT86, SML 566 nm Green LED, 1608 (0603) Milky White SMD package" H 4950 2500 50  0001 L BNN "Description"
F 5 "ROHM Semiconductor" H 4950 2300 50  0001 L BNN "Manufacturer_Name"
F 6 "SML-D13FWT86" H 4950 2200 50  0001 L BNN "Manufacturer_Part_Number"
F 7 "1332874P" H 4950 2100 50  0001 L BNN "RS Part Number"
F 8 "http://uk.rs-online.com/web/p/products/1332874P" H 4950 2000 50  0001 L BNN "RS Price/Stock"
F 9 "SML-D13FWT86" H 4950 1900 50  0001 L BNN "Arrow Part Number"
F 10 "http://uk.rs-online.com/web/p/products/1332874P" H 4950 1800 50  0001 L BNN "Arrow Price/Stock"
	1    4450 2550
	0    -1   -1   0   
$EndComp
$Comp
L Device:R_Small R1
U 1 1 5C06AB92
P 4450 2000
F 0 "R1" H 4509 2046 50  0000 L CNN
F 1 "1200R" H 4509 1955 50  0000 L CNN
F 2 "Resistors_SMD:R_1206" H 4450 2000 50  0001 C CNN
F 3 "~" H 4450 2000 50  0001 C CNN
	1    4450 2000
	1    0    0    -1  
$EndComp
$Comp
L power:GND #PWR0102
U 1 1 5C06ACA1
P 4450 2500
F 0 "#PWR0102" H 4450 2250 50  0001 C CNN
F 1 "GND" H 4455 2327 50  0000 C CNN
F 2 "" H 4450 2500 50  0001 C CNN
F 3 "" H 4450 2500 50  0001 C CNN
	1    4450 2500
	1    0    0    -1  
$EndComp
Wire Wire Line
	4350 1850 4450 1850
Wire Wire Line
	4450 1850 4450 1900
Wire Wire Line
	4450 2100 4450 2150
Wire Wire Line
	4450 2500 4450 2450
$Comp
L Device:Fuse_Small F2
U 1 1 5C06B068
P 4800 1850
F 0 "F2" H 4800 2035 50  0000 C CNN
F 1 "Fuse_Small" H 4800 1944 50  0000 C CNN
F 2 "03540101ZXGY:03540101ZXGY" H 4800 1850 50  0001 C CNN
F 3 "~" H 4800 1850 50  0001 C CNN
	1    4800 1850
	1    0    0    -1  
$EndComp
$Comp
L power:+24V #PWR0103
U 1 1 5C06B06F
P 4600 1700
F 0 "#PWR0103" H 4600 1550 50  0001 C CNN
F 1 "+24V" H 4615 1873 50  0000 C CNN
F 2 "" H 4600 1700 50  0001 C CNN
F 3 "" H 4600 1700 50  0001 C CNN
	1    4600 1700
	1    0    0    -1  
$EndComp
Wire Wire Line
	4600 1700 4600 1850
Wire Wire Line
	4600 1850 4700 1850
$Comp
L Cure_Symbol:SML-D13FWT86 LED2
U 1 1 5C06B07E
P 5000 2550
F 0 "LED2" V 5296 2382 50  0000 R CNN
F 1 "SML-D13FWT86" V 5205 2382 50  0000 R CNN
F 2 "SML-D13FWT86:SMLD15YWT86" H 5500 2700 50  0001 L BNN
F 3 "http://www.rohm.com/web/global/datasheet/SML-D13FW/sml-d13x-e" H 5500 2600 50  0001 L BNN
F 4 "ROHM SML-D13FWT86, SML 566 nm Green LED, 1608 (0603) Milky White SMD package" H 5500 2500 50  0001 L BNN "Description"
F 5 "ROHM Semiconductor" H 5500 2300 50  0001 L BNN "Manufacturer_Name"
F 6 "SML-D13FWT86" H 5500 2200 50  0001 L BNN "Manufacturer_Part_Number"
F 7 "1332874P" H 5500 2100 50  0001 L BNN "RS Part Number"
F 8 "http://uk.rs-online.com/web/p/products/1332874P" H 5500 2000 50  0001 L BNN "RS Price/Stock"
F 9 "SML-D13FWT86" H 5500 1900 50  0001 L BNN "Arrow Part Number"
F 10 "http://uk.rs-online.com/web/p/products/1332874P" H 5500 1800 50  0001 L BNN "Arrow Price/Stock"
	1    5000 2550
	0    -1   -1   0   
$EndComp
$Comp
L Device:R_Small R2
U 1 1 5C06B085
P 5000 2000
F 0 "R2" H 5059 2046 50  0000 L CNN
F 1 "1200R" H 5059 1955 50  0000 L CNN
F 2 "Resistors_SMD:R_1206" H 5000 2000 50  0001 C CNN
F 3 "~" H 5000 2000 50  0001 C CNN
	1    5000 2000
	1    0    0    -1  
$EndComp
$Comp
L power:GND #PWR0104
U 1 1 5C06B08C
P 5000 2500
F 0 "#PWR0104" H 5000 2250 50  0001 C CNN
F 1 "GND" H 5005 2327 50  0000 C CNN
F 2 "" H 5000 2500 50  0001 C CNN
F 3 "" H 5000 2500 50  0001 C CNN
	1    5000 2500
	1    0    0    -1  
$EndComp
Wire Wire Line
	4900 1850 5000 1850
Wire Wire Line
	5000 1850 5000 1900
Wire Wire Line
	5000 2100 5000 2150
Wire Wire Line
	5000 2500 5000 2450
$Comp
L Device:Fuse_Small F3
U 1 1 5C06B4EC
P 5350 1850
F 0 "F3" H 5350 2035 50  0000 C CNN
F 1 "Fuse_Small" H 5350 1944 50  0000 C CNN
F 2 "03540101ZXGY:03540101ZXGY" H 5350 1850 50  0001 C CNN
F 3 "~" H 5350 1850 50  0001 C CNN
	1    5350 1850
	1    0    0    -1  
$EndComp
$Comp
L power:+24V #PWR0105
U 1 1 5C06B4F3
P 5150 1700
F 0 "#PWR0105" H 5150 1550 50  0001 C CNN
F 1 "+24V" H 5165 1873 50  0000 C CNN
F 2 "" H 5150 1700 50  0001 C CNN
F 3 "" H 5150 1700 50  0001 C CNN
	1    5150 1700
	1    0    0    -1  
$EndComp
Wire Wire Line
	5150 1700 5150 1850
Wire Wire Line
	5150 1850 5250 1850
$Comp
L Cure_Symbol:SML-D13FWT86 LED3
U 1 1 5C06B502
P 5550 2550
F 0 "LED3" V 5846 2382 50  0000 R CNN
F 1 "SML-D13FWT86" V 5755 2382 50  0000 R CNN
F 2 "SML-D13FWT86:SMLD15YWT86" H 6050 2700 50  0001 L BNN
F 3 "http://www.rohm.com/web/global/datasheet/SML-D13FW/sml-d13x-e" H 6050 2600 50  0001 L BNN
F 4 "ROHM SML-D13FWT86, SML 566 nm Green LED, 1608 (0603) Milky White SMD package" H 6050 2500 50  0001 L BNN "Description"
F 5 "ROHM Semiconductor" H 6050 2300 50  0001 L BNN "Manufacturer_Name"
F 6 "SML-D13FWT86" H 6050 2200 50  0001 L BNN "Manufacturer_Part_Number"
F 7 "1332874P" H 6050 2100 50  0001 L BNN "RS Part Number"
F 8 "http://uk.rs-online.com/web/p/products/1332874P" H 6050 2000 50  0001 L BNN "RS Price/Stock"
F 9 "SML-D13FWT86" H 6050 1900 50  0001 L BNN "Arrow Part Number"
F 10 "http://uk.rs-online.com/web/p/products/1332874P" H 6050 1800 50  0001 L BNN "Arrow Price/Stock"
	1    5550 2550
	0    -1   -1   0   
$EndComp
$Comp
L Device:R_Small R3
U 1 1 5C06B509
P 5550 2000
F 0 "R3" H 5609 2046 50  0000 L CNN
F 1 "1200R" H 5609 1955 50  0000 L CNN
F 2 "Resistors_SMD:R_1206" H 5550 2000 50  0001 C CNN
F 3 "~" H 5550 2000 50  0001 C CNN
	1    5550 2000
	1    0    0    -1  
$EndComp
$Comp
L power:GND #PWR0106
U 1 1 5C06B510
P 5550 2500
F 0 "#PWR0106" H 5550 2250 50  0001 C CNN
F 1 "GND" H 5555 2327 50  0000 C CNN
F 2 "" H 5550 2500 50  0001 C CNN
F 3 "" H 5550 2500 50  0001 C CNN
	1    5550 2500
	1    0    0    -1  
$EndComp
Wire Wire Line
	5450 1850 5550 1850
Wire Wire Line
	5550 1850 5550 1900
Wire Wire Line
	5550 2100 5550 2150
Wire Wire Line
	5550 2500 5550 2450
$Comp
L Device:Fuse_Small F4
U 1 1 5C06B51A
P 5900 1850
F 0 "F4" H 5900 2035 50  0000 C CNN
F 1 "Fuse_Small" H 5900 1944 50  0000 C CNN
F 2 "03540101ZXGY:03540101ZXGY" H 5900 1850 50  0001 C CNN
F 3 "~" H 5900 1850 50  0001 C CNN
	1    5900 1850
	1    0    0    -1  
$EndComp
$Comp
L power:+24V #PWR0107
U 1 1 5C06B521
P 5700 1700
F 0 "#PWR0107" H 5700 1550 50  0001 C CNN
F 1 "+24V" H 5715 1873 50  0000 C CNN
F 2 "" H 5700 1700 50  0001 C CNN
F 3 "" H 5700 1700 50  0001 C CNN
	1    5700 1700
	1    0    0    -1  
$EndComp
Wire Wire Line
	5700 1700 5700 1850
Wire Wire Line
	5700 1850 5800 1850
$Comp
L Cure_Symbol:SML-D13FWT86 LED4
U 1 1 5C06B530
P 6100 2550
F 0 "LED4" V 6396 2382 50  0000 R CNN
F 1 "SML-D13FWT86" V 6305 2382 50  0000 R CNN
F 2 "SML-D13FWT86:SMLD15YWT86" H 6600 2700 50  0001 L BNN
F 3 "http://www.rohm.com/web/global/datasheet/SML-D13FW/sml-d13x-e" H 6600 2600 50  0001 L BNN
F 4 "ROHM SML-D13FWT86, SML 566 nm Green LED, 1608 (0603) Milky White SMD package" H 6600 2500 50  0001 L BNN "Description"
F 5 "ROHM Semiconductor" H 6600 2300 50  0001 L BNN "Manufacturer_Name"
F 6 "SML-D13FWT86" H 6600 2200 50  0001 L BNN "Manufacturer_Part_Number"
F 7 "1332874P" H 6600 2100 50  0001 L BNN "RS Part Number"
F 8 "http://uk.rs-online.com/web/p/products/1332874P" H 6600 2000 50  0001 L BNN "RS Price/Stock"
F 9 "SML-D13FWT86" H 6600 1900 50  0001 L BNN "Arrow Part Number"
F 10 "http://uk.rs-online.com/web/p/products/1332874P" H 6600 1800 50  0001 L BNN "Arrow Price/Stock"
	1    6100 2550
	0    -1   -1   0   
$EndComp
$Comp
L Device:R_Small R4
U 1 1 5C06B537
P 6100 2000
F 0 "R4" H 6159 2046 50  0000 L CNN
F 1 "1200R" H 6159 1955 50  0000 L CNN
F 2 "Resistors_SMD:R_1206" H 6100 2000 50  0001 C CNN
F 3 "~" H 6100 2000 50  0001 C CNN
	1    6100 2000
	1    0    0    -1  
$EndComp
$Comp
L power:GND #PWR0108
U 1 1 5C06B53E
P 6100 2500
F 0 "#PWR0108" H 6100 2250 50  0001 C CNN
F 1 "GND" H 6105 2327 50  0000 C CNN
F 2 "" H 6100 2500 50  0001 C CNN
F 3 "" H 6100 2500 50  0001 C CNN
	1    6100 2500
	1    0    0    -1  
$EndComp
Wire Wire Line
	6000 1850 6100 1850
Wire Wire Line
	6100 1850 6100 1900
Wire Wire Line
	6100 2100 6100 2150
Wire Wire Line
	6100 2500 6100 2450
$Comp
L Device:Fuse_Small F5
U 1 1 5C06BD15
P 6450 1850
F 0 "F5" H 6450 2035 50  0000 C CNN
F 1 "Fuse_Small" H 6450 1944 50  0000 C CNN
F 2 "03540101ZXGY:03540101ZXGY" H 6450 1850 50  0001 C CNN
F 3 "~" H 6450 1850 50  0001 C CNN
	1    6450 1850
	1    0    0    -1  
$EndComp
$Comp
L power:+24V #PWR0109
U 1 1 5C06BD1C
P 6250 1700
F 0 "#PWR0109" H 6250 1550 50  0001 C CNN
F 1 "+24V" H 6265 1873 50  0000 C CNN
F 2 "" H 6250 1700 50  0001 C CNN
F 3 "" H 6250 1700 50  0001 C CNN
	1    6250 1700
	1    0    0    -1  
$EndComp
Wire Wire Line
	6250 1700 6250 1850
Wire Wire Line
	6250 1850 6350 1850
$Comp
L Cure_Symbol:SML-D13FWT86 LED5
U 1 1 5C06BD2B
P 6650 2550
F 0 "LED5" V 6946 2382 50  0000 R CNN
F 1 "SML-D13FWT86" V 6855 2382 50  0000 R CNN
F 2 "SML-D13FWT86:SMLD15YWT86" H 7150 2700 50  0001 L BNN
F 3 "http://www.rohm.com/web/global/datasheet/SML-D13FW/sml-d13x-e" H 7150 2600 50  0001 L BNN
F 4 "ROHM SML-D13FWT86, SML 566 nm Green LED, 1608 (0603) Milky White SMD package" H 7150 2500 50  0001 L BNN "Description"
F 5 "ROHM Semiconductor" H 7150 2300 50  0001 L BNN "Manufacturer_Name"
F 6 "SML-D13FWT86" H 7150 2200 50  0001 L BNN "Manufacturer_Part_Number"
F 7 "1332874P" H 7150 2100 50  0001 L BNN "RS Part Number"
F 8 "http://uk.rs-online.com/web/p/products/1332874P" H 7150 2000 50  0001 L BNN "RS Price/Stock"
F 9 "SML-D13FWT86" H 7150 1900 50  0001 L BNN "Arrow Part Number"
F 10 "http://uk.rs-online.com/web/p/products/1332874P" H 7150 1800 50  0001 L BNN "Arrow Price/Stock"
	1    6650 2550
	0    -1   -1   0   
$EndComp
$Comp
L Device:R_Small R5
U 1 1 5C06BD32
P 6650 2000
F 0 "R5" H 6709 2046 50  0000 L CNN
F 1 "1200R" H 6709 1955 50  0000 L CNN
F 2 "Resistors_SMD:R_1206" H 6650 2000 50  0001 C CNN
F 3 "~" H 6650 2000 50  0001 C CNN
	1    6650 2000
	1    0    0    -1  
$EndComp
$Comp
L power:GND #PWR0110
U 1 1 5C06BD39
P 6650 2500
F 0 "#PWR0110" H 6650 2250 50  0001 C CNN
F 1 "GND" H 6655 2327 50  0000 C CNN
F 2 "" H 6650 2500 50  0001 C CNN
F 3 "" H 6650 2500 50  0001 C CNN
	1    6650 2500
	1    0    0    -1  
$EndComp
Wire Wire Line
	6550 1850 6650 1850
Wire Wire Line
	6650 1850 6650 1900
Wire Wire Line
	6650 2100 6650 2150
Wire Wire Line
	6650 2500 6650 2450
$Comp
L Device:Fuse_Small F6
U 1 1 5C06BD43
P 7000 1850
F 0 "F6" H 7000 2035 50  0000 C CNN
F 1 "Fuse_Small" H 7000 1944 50  0000 C CNN
F 2 "03540101ZXGY:03540101ZXGY" H 7000 1850 50  0001 C CNN
F 3 "~" H 7000 1850 50  0001 C CNN
	1    7000 1850
	1    0    0    -1  
$EndComp
$Comp
L power:+24V #PWR0111
U 1 1 5C06BD4A
P 6800 1700
F 0 "#PWR0111" H 6800 1550 50  0001 C CNN
F 1 "+24V" H 6815 1873 50  0000 C CNN
F 2 "" H 6800 1700 50  0001 C CNN
F 3 "" H 6800 1700 50  0001 C CNN
	1    6800 1700
	1    0    0    -1  
$EndComp
Wire Wire Line
	6800 1700 6800 1850
Wire Wire Line
	6800 1850 6900 1850
$Comp
L Cure_Symbol:SML-D13FWT86 LED6
U 1 1 5C06BD59
P 7200 2550
F 0 "LED6" V 7496 2382 50  0000 R CNN
F 1 "SML-D13FWT86" V 7405 2382 50  0000 R CNN
F 2 "SML-D13FWT86:SMLD15YWT86" H 7700 2700 50  0001 L BNN
F 3 "http://www.rohm.com/web/global/datasheet/SML-D13FW/sml-d13x-e" H 7700 2600 50  0001 L BNN
F 4 "ROHM SML-D13FWT86, SML 566 nm Green LED, 1608 (0603) Milky White SMD package" H 7700 2500 50  0001 L BNN "Description"
F 5 "ROHM Semiconductor" H 7700 2300 50  0001 L BNN "Manufacturer_Name"
F 6 "SML-D13FWT86" H 7700 2200 50  0001 L BNN "Manufacturer_Part_Number"
F 7 "1332874P" H 7700 2100 50  0001 L BNN "RS Part Number"
F 8 "http://uk.rs-online.com/web/p/products/1332874P" H 7700 2000 50  0001 L BNN "RS Price/Stock"
F 9 "SML-D13FWT86" H 7700 1900 50  0001 L BNN "Arrow Part Number"
F 10 "http://uk.rs-online.com/web/p/products/1332874P" H 7700 1800 50  0001 L BNN "Arrow Price/Stock"
	1    7200 2550
	0    -1   -1   0   
$EndComp
$Comp
L Device:R_Small R6
U 1 1 5C06BD60
P 7200 2000
F 0 "R6" H 7259 2046 50  0000 L CNN
F 1 "1200R" H 7259 1955 50  0000 L CNN
F 2 "Resistors_SMD:R_1206" H 7200 2000 50  0001 C CNN
F 3 "~" H 7200 2000 50  0001 C CNN
	1    7200 2000
	1    0    0    -1  
$EndComp
$Comp
L power:GND #PWR0112
U 1 1 5C06BD67
P 7200 2500
F 0 "#PWR0112" H 7200 2250 50  0001 C CNN
F 1 "GND" H 7205 2327 50  0000 C CNN
F 2 "" H 7200 2500 50  0001 C CNN
F 3 "" H 7200 2500 50  0001 C CNN
	1    7200 2500
	1    0    0    -1  
$EndComp
Wire Wire Line
	7100 1850 7200 1850
Wire Wire Line
	7200 1850 7200 1900
Wire Wire Line
	7200 2100 7200 2150
Wire Wire Line
	7200 2500 7200 2450
$Comp
L Device:Fuse_Small F7
U 1 1 5C06BD71
P 7550 1850
F 0 "F7" H 7550 2035 50  0000 C CNN
F 1 "Fuse_Small" H 7550 1944 50  0000 C CNN
F 2 "03540101ZXGY:03540101ZXGY" H 7550 1850 50  0001 C CNN
F 3 "~" H 7550 1850 50  0001 C CNN
	1    7550 1850
	1    0    0    -1  
$EndComp
$Comp
L power:+24V #PWR0113
U 1 1 5C06BD78
P 7350 1700
F 0 "#PWR0113" H 7350 1550 50  0001 C CNN
F 1 "+24V" H 7365 1873 50  0000 C CNN
F 2 "" H 7350 1700 50  0001 C CNN
F 3 "" H 7350 1700 50  0001 C CNN
	1    7350 1700
	1    0    0    -1  
$EndComp
Wire Wire Line
	7350 1700 7350 1850
Wire Wire Line
	7350 1850 7450 1850
$Comp
L Cure_Symbol:SML-D13FWT86 LED7
U 1 1 5C06BD87
P 7750 2550
F 0 "LED7" V 8046 2382 50  0000 R CNN
F 1 "SML-D13FWT86" V 7955 2382 50  0000 R CNN
F 2 "SML-D13FWT86:SMLD15YWT86" H 8250 2700 50  0001 L BNN
F 3 "http://www.rohm.com/web/global/datasheet/SML-D13FW/sml-d13x-e" H 8250 2600 50  0001 L BNN
F 4 "ROHM SML-D13FWT86, SML 566 nm Green LED, 1608 (0603) Milky White SMD package" H 8250 2500 50  0001 L BNN "Description"
F 5 "ROHM Semiconductor" H 8250 2300 50  0001 L BNN "Manufacturer_Name"
F 6 "SML-D13FWT86" H 8250 2200 50  0001 L BNN "Manufacturer_Part_Number"
F 7 "1332874P" H 8250 2100 50  0001 L BNN "RS Part Number"
F 8 "http://uk.rs-online.com/web/p/products/1332874P" H 8250 2000 50  0001 L BNN "RS Price/Stock"
F 9 "SML-D13FWT86" H 8250 1900 50  0001 L BNN "Arrow Part Number"
F 10 "http://uk.rs-online.com/web/p/products/1332874P" H 8250 1800 50  0001 L BNN "Arrow Price/Stock"
	1    7750 2550
	0    -1   -1   0   
$EndComp
$Comp
L Device:R_Small R7
U 1 1 5C06BD8E
P 7750 2000
F 0 "R7" H 7809 2046 50  0000 L CNN
F 1 "1200R" H 7809 1955 50  0000 L CNN
F 2 "Resistors_SMD:R_1206" H 7750 2000 50  0001 C CNN
F 3 "~" H 7750 2000 50  0001 C CNN
	1    7750 2000
	1    0    0    -1  
$EndComp
$Comp
L power:GND #PWR0114
U 1 1 5C06BD95
P 7750 2500
F 0 "#PWR0114" H 7750 2250 50  0001 C CNN
F 1 "GND" H 7755 2327 50  0000 C CNN
F 2 "" H 7750 2500 50  0001 C CNN
F 3 "" H 7750 2500 50  0001 C CNN
	1    7750 2500
	1    0    0    -1  
$EndComp
Wire Wire Line
	7650 1850 7750 1850
Wire Wire Line
	7750 1850 7750 1900
Wire Wire Line
	7750 2100 7750 2150
Wire Wire Line
	7750 2500 7750 2450
Text GLabel 4450 1800 1    50   Input ~ 0
Brakelight_Fused
Text GLabel 5000 1800 1    50   Input ~ 0
ES910_Fused
Text GLabel 5550 1800 1    50   Input ~ 0
Inverter1_Fused
Text GLabel 6650 1800 1    50   Input ~ 0
RaspberryPi_Fused
Text GLabel 7200 1800 1    50   Input ~ 0
EnergyMeter_Fused
Text GLabel 7750 1800 1    50   Input ~ 0
Fan_ES910_Fused
Text GLabel 6100 1800 1    50   Input ~ 0
Invterter2_Fused
Wire Wire Line
	4450 1850 4450 1800
Connection ~ 4450 1850
Wire Wire Line
	5000 1850 5000 1800
Connection ~ 5000 1850
Wire Wire Line
	5550 1850 5550 1800
Connection ~ 5550 1850
Wire Wire Line
	6100 1850 6100 1800
Connection ~ 6100 1850
Wire Wire Line
	6650 1850 6650 1800
Connection ~ 6650 1850
Wire Wire Line
	7200 1850 7200 1800
Connection ~ 7200 1850
Wire Wire Line
	7750 1850 7750 1800
Connection ~ 7750 1850
$Comp
L power:GND #PWR0115
U 1 1 5C06D058
P 10200 2700
F 0 "#PWR0115" H 10200 2450 50  0001 C CNN
F 1 "GND" H 10205 2527 50  0000 C CNN
F 2 "" H 10200 2700 50  0001 C CNN
F 3 "" H 10200 2700 50  0001 C CNN
	1    10200 2700
	1    0    0    -1  
$EndComp
$Comp
L power:+24V #PWR0116
U 1 1 5C06D099
P 10200 2500
F 0 "#PWR0116" H 10200 2350 50  0001 C CNN
F 1 "+24V" H 10215 2673 50  0000 C CNN
F 2 "" H 10200 2500 50  0001 C CNN
F 3 "" H 10200 2500 50  0001 C CNN
	1    10200 2500
	1    0    0    -1  
$EndComp
$Comp
L Connector:DB15_Male J1
U 1 1 5C06F36B
P 9550 1450
F 0 "J1" H 9705 1496 50  0000 L CNN
F 1 "DB15_Male" H 9705 1405 50  0000 L CNN
F 2 "1-106506-2:11065062" H 9550 1450 50  0001 C CNN
F 3 " ~" H 9550 1450 50  0001 C CNN
	1    9550 1450
	1    0    0    -1  
$EndComp
$Comp
L power:+24V #PWR0117
U 1 1 5C0701BE
P 4050 3350
F 0 "#PWR0117" H 4050 3200 50  0001 C CNN
F 1 "+24V" H 4065 3523 50  0000 C CNN
F 2 "" H 4050 3350 50  0001 C CNN
F 3 "" H 4050 3350 50  0001 C CNN
	1    4050 3350
	1    0    0    -1  
$EndComp
Wire Wire Line
	4050 3350 4050 3500
Wire Wire Line
	4050 3500 4150 3500
$Comp
L Cure_Symbol:SML-D13FWT86 LED8
U 1 1 5C0701CD
P 4450 4200
F 0 "LED8" V 4746 4032 50  0000 R CNN
F 1 "SML-D13FWT86" V 4655 4032 50  0000 R CNN
F 2 "SML-D13FWT86:SMLD15YWT86" H 4950 4350 50  0001 L BNN
F 3 "http://www.rohm.com/web/global/datasheet/SML-D13FW/sml-d13x-e" H 4950 4250 50  0001 L BNN
F 4 "ROHM SML-D13FWT86, SML 566 nm Green LED, 1608 (0603) Milky White SMD package" H 4950 4150 50  0001 L BNN "Description"
F 5 "ROHM Semiconductor" H 4950 3950 50  0001 L BNN "Manufacturer_Name"
F 6 "SML-D13FWT86" H 4950 3850 50  0001 L BNN "Manufacturer_Part_Number"
F 7 "1332874P" H 4950 3750 50  0001 L BNN "RS Part Number"
F 8 "http://uk.rs-online.com/web/p/products/1332874P" H 4950 3650 50  0001 L BNN "RS Price/Stock"
F 9 "SML-D13FWT86" H 4950 3550 50  0001 L BNN "Arrow Part Number"
F 10 "http://uk.rs-online.com/web/p/products/1332874P" H 4950 3450 50  0001 L BNN "Arrow Price/Stock"
	1    4450 4200
	0    -1   -1   0   
$EndComp
$Comp
L Device:R_Small R8
U 1 1 5C0701D4
P 4450 3650
F 0 "R8" H 4509 3696 50  0000 L CNN
F 1 "1200R" H 4509 3605 50  0000 L CNN
F 2 "Resistors_SMD:R_1206" H 4450 3650 50  0001 C CNN
F 3 "~" H 4450 3650 50  0001 C CNN
	1    4450 3650
	1    0    0    -1  
$EndComp
$Comp
L power:GND #PWR0118
U 1 1 5C0701DB
P 4450 4150
F 0 "#PWR0118" H 4450 3900 50  0001 C CNN
F 1 "GND" H 4455 3977 50  0000 C CNN
F 2 "" H 4450 4150 50  0001 C CNN
F 3 "" H 4450 4150 50  0001 C CNN
	1    4450 4150
	1    0    0    -1  
$EndComp
Wire Wire Line
	4350 3500 4450 3500
Wire Wire Line
	4450 3500 4450 3550
Wire Wire Line
	4450 3750 4450 3800
Wire Wire Line
	4450 4150 4450 4100
Wire Wire Line
	4450 3500 4450 3450
Connection ~ 4450 3500
$Comp
L Device:Polyfuse_Small F8
U 1 1 5C0711CB
P 4250 3500
F 0 "F8" V 4045 3500 50  0000 C CNN
F 1 "Polyfuse_Small" V 4136 3500 50  0000 C CNN
F 2 "RXEF005:HDRV2W60P0X505_1X2_800X300X830P" H 4300 3300 50  0001 L CNN
F 3 "~" H 4250 3500 50  0001 C CNN
	1    4250 3500
	0    1    1    0   
$EndComp
Text GLabel 4450 3450 1    50   Input ~ 0
SCPCB_Fused
$Comp
L power:+24V #PWR0119
U 1 1 5C0718C6
P 4600 3350
F 0 "#PWR0119" H 4600 3200 50  0001 C CNN
F 1 "+24V" H 4615 3523 50  0000 C CNN
F 2 "" H 4600 3350 50  0001 C CNN
F 3 "" H 4600 3350 50  0001 C CNN
	1    4600 3350
	1    0    0    -1  
$EndComp
Wire Wire Line
	4600 3350 4600 3500
Wire Wire Line
	4600 3500 4700 3500
$Comp
L Cure_Symbol:SML-D13FWT86 LED9
U 1 1 5C0718D5
P 5000 4200
F 0 "LED9" V 5296 4032 50  0000 R CNN
F 1 "SML-D13FWT86" V 5205 4032 50  0000 R CNN
F 2 "SML-D13FWT86:SMLD15YWT86" H 5500 4350 50  0001 L BNN
F 3 "http://www.rohm.com/web/global/datasheet/SML-D13FW/sml-d13x-e" H 5500 4250 50  0001 L BNN
F 4 "ROHM SML-D13FWT86, SML 566 nm Green LED, 1608 (0603) Milky White SMD package" H 5500 4150 50  0001 L BNN "Description"
F 5 "ROHM Semiconductor" H 5500 3950 50  0001 L BNN "Manufacturer_Name"
F 6 "SML-D13FWT86" H 5500 3850 50  0001 L BNN "Manufacturer_Part_Number"
F 7 "1332874P" H 5500 3750 50  0001 L BNN "RS Part Number"
F 8 "http://uk.rs-online.com/web/p/products/1332874P" H 5500 3650 50  0001 L BNN "RS Price/Stock"
F 9 "SML-D13FWT86" H 5500 3550 50  0001 L BNN "Arrow Part Number"
F 10 "http://uk.rs-online.com/web/p/products/1332874P" H 5500 3450 50  0001 L BNN "Arrow Price/Stock"
	1    5000 4200
	0    -1   -1   0   
$EndComp
$Comp
L Device:R_Small R9
U 1 1 5C0718DC
P 5000 3650
F 0 "R9" H 5059 3696 50  0000 L CNN
F 1 "1200R" H 5059 3605 50  0000 L CNN
F 2 "Resistors_SMD:R_1206" H 5000 3650 50  0001 C CNN
F 3 "~" H 5000 3650 50  0001 C CNN
	1    5000 3650
	1    0    0    -1  
$EndComp
$Comp
L power:GND #PWR0120
U 1 1 5C0718E3
P 5000 4150
F 0 "#PWR0120" H 5000 3900 50  0001 C CNN
F 1 "GND" H 5005 3977 50  0000 C CNN
F 2 "" H 5000 4150 50  0001 C CNN
F 3 "" H 5000 4150 50  0001 C CNN
	1    5000 4150
	1    0    0    -1  
$EndComp
Wire Wire Line
	4900 3500 5000 3500
Wire Wire Line
	5000 3500 5000 3550
Wire Wire Line
	5000 3750 5000 3800
Wire Wire Line
	5000 4150 5000 4100
Wire Wire Line
	5000 3500 5000 3450
Connection ~ 5000 3500
$Comp
L Device:Polyfuse_Small F9
U 1 1 5C0718EF
P 4800 3500
F 0 "F9" V 4595 3500 50  0000 C CNN
F 1 "Polyfuse_Small" V 4686 3500 50  0000 C CNN
F 2 "RXEF005:HDRV2W60P0X505_1X2_800X300X830P" H 4850 3300 50  0001 L CNN
F 3 "~" H 4800 3500 50  0001 C CNN
	1    4800 3500
	0    1    1    0   
$EndComp
Text GLabel 5000 3450 1    50   Input ~ 0
LedPcb_Fused
$Comp
L power:+24V #PWR0121
U 1 1 5C072E65
P 5150 3350
F 0 "#PWR0121" H 5150 3200 50  0001 C CNN
F 1 "+24V" H 5165 3523 50  0000 C CNN
F 2 "" H 5150 3350 50  0001 C CNN
F 3 "" H 5150 3350 50  0001 C CNN
	1    5150 3350
	1    0    0    -1  
$EndComp
Wire Wire Line
	5150 3350 5150 3500
Wire Wire Line
	5150 3500 5250 3500
$Comp
L Cure_Symbol:SML-D13FWT86 LED10
U 1 1 5C072E74
P 5550 4200
F 0 "LED10" V 5846 4032 50  0000 R CNN
F 1 "SML-D13FWT86" V 5755 4032 50  0000 R CNN
F 2 "SML-D13FWT86:SMLD15YWT86" H 6050 4350 50  0001 L BNN
F 3 "http://www.rohm.com/web/global/datasheet/SML-D13FW/sml-d13x-e" H 6050 4250 50  0001 L BNN
F 4 "ROHM SML-D13FWT86, SML 566 nm Green LED, 1608 (0603) Milky White SMD package" H 6050 4150 50  0001 L BNN "Description"
F 5 "ROHM Semiconductor" H 6050 3950 50  0001 L BNN "Manufacturer_Name"
F 6 "SML-D13FWT86" H 6050 3850 50  0001 L BNN "Manufacturer_Part_Number"
F 7 "1332874P" H 6050 3750 50  0001 L BNN "RS Part Number"
F 8 "http://uk.rs-online.com/web/p/products/1332874P" H 6050 3650 50  0001 L BNN "RS Price/Stock"
F 9 "SML-D13FWT86" H 6050 3550 50  0001 L BNN "Arrow Part Number"
F 10 "http://uk.rs-online.com/web/p/products/1332874P" H 6050 3450 50  0001 L BNN "Arrow Price/Stock"
	1    5550 4200
	0    -1   -1   0   
$EndComp
$Comp
L Device:R_Small R10
U 1 1 5C072E7B
P 5550 3650
F 0 "R10" H 5609 3696 50  0000 L CNN
F 1 "1200R" H 5609 3605 50  0000 L CNN
F 2 "Resistors_SMD:R_1206" H 5550 3650 50  0001 C CNN
F 3 "~" H 5550 3650 50  0001 C CNN
	1    5550 3650
	1    0    0    -1  
$EndComp
$Comp
L power:GND #PWR0122
U 1 1 5C072E82
P 5550 4150
F 0 "#PWR0122" H 5550 3900 50  0001 C CNN
F 1 "GND" H 5555 3977 50  0000 C CNN
F 2 "" H 5550 4150 50  0001 C CNN
F 3 "" H 5550 4150 50  0001 C CNN
	1    5550 4150
	1    0    0    -1  
$EndComp
Wire Wire Line
	5450 3500 5550 3500
Wire Wire Line
	5550 3500 5550 3550
Wire Wire Line
	5550 3750 5550 3800
Wire Wire Line
	5550 4150 5550 4100
Wire Wire Line
	5550 3500 5550 3450
Connection ~ 5550 3500
$Comp
L Device:Polyfuse_Small F10
U 1 1 5C072E8E
P 5350 3500
F 0 "F10" V 5145 3500 50  0000 C CNN
F 1 "Polyfuse_Small" V 5236 3500 50  0000 C CNN
F 2 "RXEF005:HDRV2W60P0X505_1X2_800X300X830P" H 5400 3300 50  0001 L CNN
F 3 "~" H 5350 3500 50  0001 C CNN
	1    5350 3500
	0    1    1    0   
$EndComp
Text GLabel 5550 3450 1    50   Input ~ 0
IMD_Fused
$Comp
L power:+24V #PWR0123
U 1 1 5C074B10
P 5700 3350
F 0 "#PWR0123" H 5700 3200 50  0001 C CNN
F 1 "+24V" H 5715 3523 50  0000 C CNN
F 2 "" H 5700 3350 50  0001 C CNN
F 3 "" H 5700 3350 50  0001 C CNN
	1    5700 3350
	1    0    0    -1  
$EndComp
Wire Wire Line
	5700 3350 5700 3500
Wire Wire Line
	5700 3500 5800 3500
$Comp
L Cure_Symbol:SML-D13FWT86 LED11
U 1 1 5C074B1F
P 6100 4200
F 0 "LED11" V 6396 4032 50  0000 R CNN
F 1 "SML-D13FWT86" V 6305 4032 50  0000 R CNN
F 2 "SML-D13FWT86:SMLD15YWT86" H 6600 4350 50  0001 L BNN
F 3 "http://www.rohm.com/web/global/datasheet/SML-D13FW/sml-d13x-e" H 6600 4250 50  0001 L BNN
F 4 "ROHM SML-D13FWT86, SML 566 nm Green LED, 1608 (0603) Milky White SMD package" H 6600 4150 50  0001 L BNN "Description"
F 5 "ROHM Semiconductor" H 6600 3950 50  0001 L BNN "Manufacturer_Name"
F 6 "SML-D13FWT86" H 6600 3850 50  0001 L BNN "Manufacturer_Part_Number"
F 7 "1332874P" H 6600 3750 50  0001 L BNN "RS Part Number"
F 8 "http://uk.rs-online.com/web/p/products/1332874P" H 6600 3650 50  0001 L BNN "RS Price/Stock"
F 9 "SML-D13FWT86" H 6600 3550 50  0001 L BNN "Arrow Part Number"
F 10 "http://uk.rs-online.com/web/p/products/1332874P" H 6600 3450 50  0001 L BNN "Arrow Price/Stock"
	1    6100 4200
	0    -1   -1   0   
$EndComp
$Comp
L Device:R_Small R11
U 1 1 5C074B26
P 6100 3650
F 0 "R11" H 6159 3696 50  0000 L CNN
F 1 "1200R" H 6159 3605 50  0000 L CNN
F 2 "Resistors_SMD:R_1206" H 6100 3650 50  0001 C CNN
F 3 "~" H 6100 3650 50  0001 C CNN
	1    6100 3650
	1    0    0    -1  
$EndComp
$Comp
L power:GND #PWR0124
U 1 1 5C074B2D
P 6100 4150
F 0 "#PWR0124" H 6100 3900 50  0001 C CNN
F 1 "GND" H 6105 3977 50  0000 C CNN
F 2 "" H 6100 4150 50  0001 C CNN
F 3 "" H 6100 4150 50  0001 C CNN
	1    6100 4150
	1    0    0    -1  
$EndComp
Wire Wire Line
	6000 3500 6100 3500
Wire Wire Line
	6100 3500 6100 3550
Wire Wire Line
	6100 3750 6100 3800
Wire Wire Line
	6100 4150 6100 4100
Wire Wire Line
	6100 3500 6100 3450
Connection ~ 6100 3500
$Comp
L Device:Polyfuse_Small F11
U 1 1 5C074B39
P 5900 3500
F 0 "F11" V 5695 3500 50  0000 C CNN
F 1 "Polyfuse_Small" V 5786 3500 50  0000 C CNN
F 2 "RXEF005:HDRV2W60P0X505_1X2_800X300X830P" H 5950 3300 50  0001 L CNN
F 3 "~" H 5900 3500 50  0001 C CNN
	1    5900 3500
	0    1    1    0   
$EndComp
Text GLabel 6100 3450 1    50   Input ~ 0
TSAL_Fused
$Comp
L power:+24V #PWR0125
U 1 1 5C074B41
P 6250 3350
F 0 "#PWR0125" H 6250 3200 50  0001 C CNN
F 1 "+24V" H 6265 3523 50  0000 C CNN
F 2 "" H 6250 3350 50  0001 C CNN
F 3 "" H 6250 3350 50  0001 C CNN
	1    6250 3350
	1    0    0    -1  
$EndComp
Wire Wire Line
	6250 3350 6250 3500
Wire Wire Line
	6250 3500 6350 3500
$Comp
L Cure_Symbol:SML-D13FWT86 LED12
U 1 1 5C074B50
P 6650 4200
F 0 "LED12" V 6946 4032 50  0000 R CNN
F 1 "SML-D13FWT86" V 6855 4032 50  0000 R CNN
F 2 "SML-D13FWT86:SMLD15YWT86" H 7150 4350 50  0001 L BNN
F 3 "http://www.rohm.com/web/global/datasheet/SML-D13FW/sml-d13x-e" H 7150 4250 50  0001 L BNN
F 4 "ROHM SML-D13FWT86, SML 566 nm Green LED, 1608 (0603) Milky White SMD package" H 7150 4150 50  0001 L BNN "Description"
F 5 "ROHM Semiconductor" H 7150 3950 50  0001 L BNN "Manufacturer_Name"
F 6 "SML-D13FWT86" H 7150 3850 50  0001 L BNN "Manufacturer_Part_Number"
F 7 "1332874P" H 7150 3750 50  0001 L BNN "RS Part Number"
F 8 "http://uk.rs-online.com/web/p/products/1332874P" H 7150 3650 50  0001 L BNN "RS Price/Stock"
F 9 "SML-D13FWT86" H 7150 3550 50  0001 L BNN "Arrow Part Number"
F 10 "http://uk.rs-online.com/web/p/products/1332874P" H 7150 3450 50  0001 L BNN "Arrow Price/Stock"
	1    6650 4200
	0    -1   -1   0   
$EndComp
$Comp
L Device:R_Small R12
U 1 1 5C074B57
P 6650 3650
F 0 "R12" H 6709 3696 50  0000 L CNN
F 1 "1200R" H 6709 3605 50  0000 L CNN
F 2 "Resistors_SMD:R_1206" H 6650 3650 50  0001 C CNN
F 3 "~" H 6650 3650 50  0001 C CNN
	1    6650 3650
	1    0    0    -1  
$EndComp
$Comp
L power:GND #PWR0126
U 1 1 5C074B5E
P 6650 4150
F 0 "#PWR0126" H 6650 3900 50  0001 C CNN
F 1 "GND" H 6655 3977 50  0000 C CNN
F 2 "" H 6650 4150 50  0001 C CNN
F 3 "" H 6650 4150 50  0001 C CNN
	1    6650 4150
	1    0    0    -1  
$EndComp
Wire Wire Line
	6550 3500 6650 3500
Wire Wire Line
	6650 3500 6650 3550
Wire Wire Line
	6650 3750 6650 3800
Wire Wire Line
	6650 4150 6650 4100
Wire Wire Line
	6650 3500 6650 3450
Connection ~ 6650 3500
$Comp
L Device:Polyfuse_Small F12
U 1 1 5C074B6A
P 6450 3500
F 0 "F12" V 6245 3500 50  0000 C CNN
F 1 "Polyfuse_Small" V 6336 3500 50  0000 C CNN
F 2 "RXEF005:HDRV2W60P0X505_1X2_800X300X830P" H 6500 3300 50  0001 L CNN
F 3 "~" H 6450 3500 50  0001 C CNN
	1    6450 3500
	0    1    1    0   
$EndComp
Text GLabel 6650 3450 1    50   Input ~ 0
Discharge_Fused
$Comp
L power:+24V #PWR0127
U 1 1 5C074B72
P 6800 3350
F 0 "#PWR0127" H 6800 3200 50  0001 C CNN
F 1 "+24V" H 6815 3523 50  0000 C CNN
F 2 "" H 6800 3350 50  0001 C CNN
F 3 "" H 6800 3350 50  0001 C CNN
	1    6800 3350
	1    0    0    -1  
$EndComp
Wire Wire Line
	6800 3350 6800 3500
Wire Wire Line
	6800 3500 6900 3500
$Comp
L Cure_Symbol:SML-D13FWT86 LED13
U 1 1 5C074B81
P 7200 4200
F 0 "LED13" V 7496 4032 50  0000 R CNN
F 1 "SML-D13FWT86" V 7405 4032 50  0000 R CNN
F 2 "SML-D13FWT86:SMLD15YWT86" H 7700 4350 50  0001 L BNN
F 3 "http://www.rohm.com/web/global/datasheet/SML-D13FW/sml-d13x-e" H 7700 4250 50  0001 L BNN
F 4 "ROHM SML-D13FWT86, SML 566 nm Green LED, 1608 (0603) Milky White SMD package" H 7700 4150 50  0001 L BNN "Description"
F 5 "ROHM Semiconductor" H 7700 3950 50  0001 L BNN "Manufacturer_Name"
F 6 "SML-D13FWT86" H 7700 3850 50  0001 L BNN "Manufacturer_Part_Number"
F 7 "1332874P" H 7700 3750 50  0001 L BNN "RS Part Number"
F 8 "http://uk.rs-online.com/web/p/products/1332874P" H 7700 3650 50  0001 L BNN "RS Price/Stock"
F 9 "SML-D13FWT86" H 7700 3550 50  0001 L BNN "Arrow Part Number"
F 10 "http://uk.rs-online.com/web/p/products/1332874P" H 7700 3450 50  0001 L BNN "Arrow Price/Stock"
	1    7200 4200
	0    -1   -1   0   
$EndComp
$Comp
L Device:R_Small R13
U 1 1 5C074B88
P 7200 3650
F 0 "R13" H 7259 3696 50  0000 L CNN
F 1 "1200R" H 7259 3605 50  0000 L CNN
F 2 "Resistors_SMD:R_1206" H 7200 3650 50  0001 C CNN
F 3 "~" H 7200 3650 50  0001 C CNN
	1    7200 3650
	1    0    0    -1  
$EndComp
$Comp
L power:GND #PWR0128
U 1 1 5C074B8F
P 7200 4150
F 0 "#PWR0128" H 7200 3900 50  0001 C CNN
F 1 "GND" H 7205 3977 50  0000 C CNN
F 2 "" H 7200 4150 50  0001 C CNN
F 3 "" H 7200 4150 50  0001 C CNN
	1    7200 4150
	1    0    0    -1  
$EndComp
Wire Wire Line
	7100 3500 7200 3500
Wire Wire Line
	7200 3500 7200 3550
Wire Wire Line
	7200 3750 7200 3800
Wire Wire Line
	7200 4150 7200 4100
Wire Wire Line
	7200 3500 7200 3450
Connection ~ 7200 3500
$Comp
L Device:Polyfuse_Small F13
U 1 1 5C074B9B
P 7000 3500
F 0 "F13" V 6795 3500 50  0000 C CNN
F 1 "Polyfuse_Small" V 6886 3500 50  0000 C CNN
F 2 "RXEF005:HDRV2W60P0X505_1X2_800X300X830P" H 7050 3300 50  0001 L CNN
F 3 "~" H 7000 3500 50  0001 C CNN
	1    7000 3500
	0    1    1    0   
$EndComp
Text GLabel 7200 3450 1    50   Input ~ 0
Precharge_Fused
$Comp
L power:+24V #PWR0129
U 1 1 5C078F20
P 7350 3350
F 0 "#PWR0129" H 7350 3200 50  0001 C CNN
F 1 "+24V" H 7365 3523 50  0000 C CNN
F 2 "" H 7350 3350 50  0001 C CNN
F 3 "" H 7350 3350 50  0001 C CNN
	1    7350 3350
	1    0    0    -1  
$EndComp
Wire Wire Line
	7350 3350 7350 3500
Wire Wire Line
	7350 3500 7450 3500
$Comp
L Cure_Symbol:SML-D13FWT86 LED14
U 1 1 5C078F2F
P 7750 4200
F 0 "LED14" V 8046 4032 50  0000 R CNN
F 1 "SML-D13FWT86" V 7955 4032 50  0000 R CNN
F 2 "SML-D13FWT86:SMLD15YWT86" H 8250 4350 50  0001 L BNN
F 3 "http://www.rohm.com/web/global/datasheet/SML-D13FW/sml-d13x-e" H 8250 4250 50  0001 L BNN
F 4 "ROHM SML-D13FWT86, SML 566 nm Green LED, 1608 (0603) Milky White SMD package" H 8250 4150 50  0001 L BNN "Description"
F 5 "ROHM Semiconductor" H 8250 3950 50  0001 L BNN "Manufacturer_Name"
F 6 "SML-D13FWT86" H 8250 3850 50  0001 L BNN "Manufacturer_Part_Number"
F 7 "1332874P" H 8250 3750 50  0001 L BNN "RS Part Number"
F 8 "http://uk.rs-online.com/web/p/products/1332874P" H 8250 3650 50  0001 L BNN "RS Price/Stock"
F 9 "SML-D13FWT86" H 8250 3550 50  0001 L BNN "Arrow Part Number"
F 10 "http://uk.rs-online.com/web/p/products/1332874P" H 8250 3450 50  0001 L BNN "Arrow Price/Stock"
	1    7750 4200
	0    -1   -1   0   
$EndComp
$Comp
L Device:R_Small R14
U 1 1 5C078F36
P 7750 3650
F 0 "R14" H 7809 3696 50  0000 L CNN
F 1 "1200R" H 7809 3605 50  0000 L CNN
F 2 "Resistors_SMD:R_1206" H 7750 3650 50  0001 C CNN
F 3 "~" H 7750 3650 50  0001 C CNN
	1    7750 3650
	1    0    0    -1  
$EndComp
$Comp
L power:GND #PWR0130
U 1 1 5C078F3D
P 7750 4150
F 0 "#PWR0130" H 7750 3900 50  0001 C CNN
F 1 "GND" H 7755 3977 50  0000 C CNN
F 2 "" H 7750 4150 50  0001 C CNN
F 3 "" H 7750 4150 50  0001 C CNN
	1    7750 4150
	1    0    0    -1  
$EndComp
Wire Wire Line
	7650 3500 7750 3500
Wire Wire Line
	7750 3500 7750 3550
Wire Wire Line
	7750 3750 7750 3800
Wire Wire Line
	7750 4150 7750 4100
Wire Wire Line
	7750 3500 7750 3450
Connection ~ 7750 3500
$Comp
L Device:Polyfuse_Small F14
U 1 1 5C078F49
P 7550 3500
F 0 "F14" V 7345 3500 50  0000 C CNN
F 1 "Polyfuse_Small" V 7436 3500 50  0000 C CNN
F 2 "RXEF005:HDRV2W60P0X505_1X2_800X300X830P" H 7600 3300 50  0001 L CNN
F 3 "~" H 7550 3500 50  0001 C CNN
	1    7550 3500
	0    1    1    0   
$EndComp
Text GLabel 7750 3450 1    50   Input ~ 0
SC_Fused
$Comp
L power:+24V #PWR0131
U 1 1 5C078F51
P 7900 3350
F 0 "#PWR0131" H 7900 3200 50  0001 C CNN
F 1 "+24V" H 7915 3523 50  0000 C CNN
F 2 "" H 7900 3350 50  0001 C CNN
F 3 "" H 7900 3350 50  0001 C CNN
	1    7900 3350
	1    0    0    -1  
$EndComp
Wire Wire Line
	7900 3350 7900 3500
Wire Wire Line
	7900 3500 8000 3500
$Comp
L Cure_Symbol:SML-D13FWT86 LED15
U 1 1 5C078F60
P 8300 4200
F 0 "LED15" V 8596 4032 50  0000 R CNN
F 1 "SML-D13FWT86" V 8505 4032 50  0000 R CNN
F 2 "SML-D13FWT86:SMLD15YWT86" H 8800 4350 50  0001 L BNN
F 3 "http://www.rohm.com/web/global/datasheet/SML-D13FW/sml-d13x-e" H 8800 4250 50  0001 L BNN
F 4 "ROHM SML-D13FWT86, SML 566 nm Green LED, 1608 (0603) Milky White SMD package" H 8800 4150 50  0001 L BNN "Description"
F 5 "ROHM Semiconductor" H 8800 3950 50  0001 L BNN "Manufacturer_Name"
F 6 "SML-D13FWT86" H 8800 3850 50  0001 L BNN "Manufacturer_Part_Number"
F 7 "1332874P" H 8800 3750 50  0001 L BNN "RS Part Number"
F 8 "http://uk.rs-online.com/web/p/products/1332874P" H 8800 3650 50  0001 L BNN "RS Price/Stock"
F 9 "SML-D13FWT86" H 8800 3550 50  0001 L BNN "Arrow Part Number"
F 10 "http://uk.rs-online.com/web/p/products/1332874P" H 8800 3450 50  0001 L BNN "Arrow Price/Stock"
	1    8300 4200
	0    -1   -1   0   
$EndComp
$Comp
L Device:R_Small R15
U 1 1 5C078F67
P 8300 3650
F 0 "R15" H 8359 3696 50  0000 L CNN
F 1 "1200R" H 8359 3605 50  0000 L CNN
F 2 "Resistors_SMD:R_1206" H 8300 3650 50  0001 C CNN
F 3 "~" H 8300 3650 50  0001 C CNN
	1    8300 3650
	1    0    0    -1  
$EndComp
$Comp
L power:GND #PWR0132
U 1 1 5C078F6E
P 8300 4150
F 0 "#PWR0132" H 8300 3900 50  0001 C CNN
F 1 "GND" H 8305 3977 50  0000 C CNN
F 2 "" H 8300 4150 50  0001 C CNN
F 3 "" H 8300 4150 50  0001 C CNN
	1    8300 4150
	1    0    0    -1  
$EndComp
Wire Wire Line
	8200 3500 8300 3500
Wire Wire Line
	8300 3500 8300 3550
Wire Wire Line
	8300 3750 8300 3800
Wire Wire Line
	8300 4150 8300 4100
Wire Wire Line
	8300 3500 8300 3450
Connection ~ 8300 3500
$Comp
L Device:Polyfuse_Small F15
U 1 1 5C078F7A
P 8100 3500
F 0 "F15" V 7895 3500 50  0000 C CNN
F 1 "Polyfuse_Small" V 7986 3500 50  0000 C CNN
F 2 "RXEF005:HDRV2W60P0X505_1X2_800X300X830P" H 8150 3300 50  0001 L CNN
F 3 "~" H 8100 3500 50  0001 C CNN
	1    8100 3500
	0    1    1    0   
$EndComp
Text GLabel 8300 3450 1    50   Input ~ 0
BSPD_Fused
Text GLabel 9150 750  0    50   Input ~ 0
Brakelight_Fused
Text GLabel 9150 950  0    50   Input ~ 0
ES910_Fused
Text GLabel 9150 1150 0    50   Input ~ 0
Inverter1_Fused
Text GLabel 9150 1350 0    50   Input ~ 0
Invterter2_Fused
Text GLabel 9150 1550 0    50   Input ~ 0
RaspberryPi_Fused
Text GLabel 9150 1750 0    50   Input ~ 0
EnergyMeter_Fused
Text GLabel 9150 1950 0    50   Input ~ 0
Fan_ES910_Fused
Text GLabel 9150 2150 0    50   Input ~ 0
SCPCB_Fused
Text GLabel 9200 850  0    50   Input ~ 0
LedPcb_Fused
Text GLabel 9200 1050 0    50   Input ~ 0
IMD_Fused
Text GLabel 9200 1250 0    50   Input ~ 0
TSAL_Fused
Text GLabel 9200 1450 0    50   Input ~ 0
Discharge_Fused
Text GLabel 9200 1650 0    50   Input ~ 0
Precharge_Fused
Text GLabel 9200 1850 0    50   Input ~ 0
SC_Fused
Text GLabel 9200 2050 0    50   Input ~ 0
BSPD_Fused
$Comp
L Cure_Symbol:XT60PW-M J2
U 1 1 5C070A41
P 9900 2600
F 0 "J2" H 9978 2653 60  0000 L CNN
F 1 "XT60PW-M" H 9978 2547 60  0000 L CNN
F 2 "xt60pw:XT60PW" H 9900 2600 60  0001 C CNN
F 3 "" H 9900 2600 60  0001 C CNN
	1    9900 2600
	-1   0    0    1   
$EndComp
Wire Wire Line
	10150 2550 10200 2550
Wire Wire Line
	10200 2550 10200 2500
Wire Wire Line
	10150 2650 10200 2650
Wire Wire Line
	10200 2650 10200 2700
Wire Wire Line
	9150 750  9250 750 
Wire Wire Line
	9200 850  9250 850 
Wire Wire Line
	9250 950  9150 950 
Wire Wire Line
	9200 1050 9250 1050
Wire Wire Line
	9150 1150 9250 1150
Wire Wire Line
	9200 1250 9250 1250
Wire Wire Line
	9150 1350 9250 1350
Wire Wire Line
	9200 1450 9250 1450
Wire Wire Line
	9150 1550 9250 1550
Wire Wire Line
	9200 1650 9250 1650
Wire Wire Line
	9150 1750 9250 1750
Wire Wire Line
	9200 1850 9250 1850
Wire Wire Line
	9150 1950 9250 1950
Wire Wire Line
	9200 2050 9250 2050
Wire Wire Line
	9150 2150 9250 2150
$Comp
L Connector:RJ45 J3
U 1 1 5C07296A
P 10100 3550
F 0 "J3" H 9770 3554 50  0000 R CNN
F 1 "RJ45" H 9770 3645 50  0000 R CNN
F 2 "2301994-9:23019949" V 10100 3575 50  0001 C CNN
F 3 "~" V 10100 3575 50  0001 C CNN
	1    10100 3550
	-1   0    0    1   
$EndComp
Wire Wire Line
	9700 3750 9600 3750
Wire Wire Line
	9600 3750 9600 3600
Wire Wire Line
	9600 3450 9700 3450
Wire Wire Line
	9700 3850 9600 3850
Wire Wire Line
	9600 3850 9600 3900
Wire Wire Line
	9600 3950 9700 3950
$Comp
L Device:Fuse_Small F16
U 1 1 5C07B62A
P 3150 1850
F 0 "F16" H 3150 2035 50  0000 C CNN
F 1 "Fuse_Small" H 3150 1944 50  0000 C CNN
F 2 "03540101ZXGY:03540101ZXGY" H 3150 1850 50  0001 C CNN
F 3 "~" H 3150 1850 50  0001 C CNN
	1    3150 1850
	1    0    0    -1  
$EndComp
$Comp
L power:+24V #PWR0133
U 1 1 5C07B631
P 2950 1700
F 0 "#PWR0133" H 2950 1550 50  0001 C CNN
F 1 "+24V" H 2965 1873 50  0000 C CNN
F 2 "" H 2950 1700 50  0001 C CNN
F 3 "" H 2950 1700 50  0001 C CNN
	1    2950 1700
	1    0    0    -1  
$EndComp
Wire Wire Line
	2950 1700 2950 1850
Wire Wire Line
	2950 1850 3050 1850
$Comp
L Cure_Symbol:SML-D13FWT86 LED16
U 1 1 5C07B640
P 3350 2550
F 0 "LED16" V 3646 2382 50  0000 R CNN
F 1 "SML-D13FWT86" V 3555 2382 50  0000 R CNN
F 2 "SML-D13FWT86:SMLD15YWT86" H 3850 2700 50  0001 L BNN
F 3 "http://www.rohm.com/web/global/datasheet/SML-D13FW/sml-d13x-e" H 3850 2600 50  0001 L BNN
F 4 "ROHM SML-D13FWT86, SML 566 nm Green LED, 1608 (0603) Milky White SMD package" H 3850 2500 50  0001 L BNN "Description"
F 5 "ROHM Semiconductor" H 3850 2300 50  0001 L BNN "Manufacturer_Name"
F 6 "SML-D13FWT86" H 3850 2200 50  0001 L BNN "Manufacturer_Part_Number"
F 7 "1332874P" H 3850 2100 50  0001 L BNN "RS Part Number"
F 8 "http://uk.rs-online.com/web/p/products/1332874P" H 3850 2000 50  0001 L BNN "RS Price/Stock"
F 9 "SML-D13FWT86" H 3850 1900 50  0001 L BNN "Arrow Part Number"
F 10 "http://uk.rs-online.com/web/p/products/1332874P" H 3850 1800 50  0001 L BNN "Arrow Price/Stock"
	1    3350 2550
	0    -1   -1   0   
$EndComp
$Comp
L Device:R_Small R16
U 1 1 5C07B647
P 3350 2000
F 0 "R16" H 3409 2046 50  0000 L CNN
F 1 "1200R" H 3409 1955 50  0000 L CNN
F 2 "Resistors_SMD:R_1206" H 3350 2000 50  0001 C CNN
F 3 "~" H 3350 2000 50  0001 C CNN
	1    3350 2000
	1    0    0    -1  
$EndComp
$Comp
L power:GND #PWR0134
U 1 1 5C07B64E
P 3350 2500
F 0 "#PWR0134" H 3350 2250 50  0001 C CNN
F 1 "GND" H 3355 2327 50  0000 C CNN
F 2 "" H 3350 2500 50  0001 C CNN
F 3 "" H 3350 2500 50  0001 C CNN
	1    3350 2500
	1    0    0    -1  
$EndComp
Wire Wire Line
	3250 1850 3350 1850
Wire Wire Line
	3350 1850 3350 1900
Wire Wire Line
	3350 2100 3350 2150
Wire Wire Line
	3350 2500 3350 2450
Text GLabel 3350 1800 1    50   Input ~ 0
µC_Fused
Wire Wire Line
	3350 1850 3350 1800
Connection ~ 3350 1850
Text GLabel 9550 3900 0    50   Input ~ 0
µC_Fused
$Comp
L power:GND #PWR0135
U 1 1 5C080845
P 9400 3650
F 0 "#PWR0135" H 9400 3400 50  0001 C CNN
F 1 "GND" H 9405 3477 50  0000 C CNN
F 2 "" H 9400 3650 50  0001 C CNN
F 3 "" H 9400 3650 50  0001 C CNN
	1    9400 3650
	1    0    0    -1  
$EndComp
Wire Wire Line
	9600 3600 9400 3600
Wire Wire Line
	9400 3600 9400 3650
Connection ~ 9600 3600
Wire Wire Line
	9600 3600 9600 3450
Wire Wire Line
	9600 3900 9550 3900
Connection ~ 9600 3900
Wire Wire Line
	9600 3900 9600 3950
$EndSCHEMATC
